%!PS-Adobe-3.0 EPSF-3.0
%%Creator: MATLAB, The MathWorks, Inc. Version 8.3.0.532 (R2014a). Operating System: Microsoft Windows 8.1 Pro.
%%Title: .\detGreedy.eps
%%CreationDate: 09/15/2014  16:45:38
%%DocumentNeededFonts: Helvetica
%%DocumentProcessColors: Cyan Magenta Yellow Black
%%LanguageLevel: 2
%%Pages: 1
%%BoundingBox:    18    17   255   229
%%EndComments

%%BeginProlog
% MathWorks dictionary
/MathWorks 160 dict begin
% definition operators
/bdef {bind def} bind def
/ldef {load def} bind def
/xdef {exch def} bdef
/xstore {exch store} bdef
% operator abbreviations
/c  /clip ldef
/cc /concat ldef
/cp /closepath ldef
/gr /grestore ldef
/gs /gsave ldef
/mt /moveto ldef
/np /newpath ldef
/cm /currentmatrix ldef
/sm /setmatrix ldef
/rm /rmoveto ldef
/rl /rlineto ldef
/s {show newpath} bdef
/sc {setcmykcolor} bdef
/sr /setrgbcolor ldef
/sg /setgray ldef
/w /setlinewidth ldef
/j /setlinejoin ldef
/cap /setlinecap ldef
/rc {rectclip} bdef
/rf {rectfill} bdef
% page state control
/pgsv () def
/bpage {/pgsv save def} bdef
/epage {pgsv restore} bdef
/bplot /gsave ldef
/eplot {stroke grestore} bdef
% orientation switch
/portraitMode 0 def /landscapeMode 1 def /rotateMode 2 def
% coordinate system mappings
/dpi2point 0 def
% font control
/FontSize 0 def
/FMS {/FontSize xstore findfont [FontSize 0 0 FontSize neg 0 0]
  makefont setfont} bdef
/ISOLatin1Encoding where {pop /WindowsLatin1Encoding 256 array bdef
ISOLatin1Encoding WindowsLatin1Encoding copy pop
/.notdef/.notdef/quotesinglbase/florin/quotedblbase/ellipsis/dagger
/daggerdbl/circumflex/perthousand/Scaron/guilsinglleft/OE/.notdef/.notdef
/.notdef/.notdef/quoteleft/quoteright/quotedblleft/quotedblright/bullet
/endash/emdash/tilde/trademark/scaron/guilsinglright/oe/.notdef/.notdef
/Ydieresis WindowsLatin1Encoding 128 32 getinterval astore pop}
{/WindowsLatin1Encoding StandardEncoding bdef} ifelse
/reencode {exch dup where {pop load} {pop StandardEncoding} ifelse
  exch dup 3 1 roll findfont dup length dict begin
  { 1 index /FID ne {def}{pop pop} ifelse } forall
  /Encoding exch def currentdict end definefont pop} bdef
/isroman {findfont /CharStrings get /Agrave known} bdef
/FMSR {3 1 roll 1 index dup isroman {reencode} {pop pop} ifelse
  exch FMS} bdef
/csm {1 dpi2point div -1 dpi2point div scale neg translate
 dup landscapeMode eq {pop -90 rotate}
  {rotateMode eq {90 rotate} if} ifelse} bdef
% line types: solid, dotted, dashed, dotdash
/SO { [] 0 setdash } bdef
/DO { [.5 dpi2point mul 4 dpi2point mul] 0 setdash } bdef
/DA { [6 dpi2point mul] 0 setdash } bdef
/DD { [.5 dpi2point mul 4 dpi2point mul 6 dpi2point mul 4
  dpi2point mul] 0 setdash } bdef
% macros for lines and objects
/L {lineto stroke} bdef
/MP {3 1 roll moveto 1 sub {rlineto} repeat} bdef
/AP {{rlineto} repeat} bdef
/PDlw -1 def
/W {/PDlw currentlinewidth def setlinewidth} def
/PP {closepath eofill} bdef
/DP {closepath stroke} bdef
/MR {4 -2 roll moveto dup  0 exch rlineto exch 0 rlineto
  neg 0 exch rlineto closepath} bdef
/FR {MR stroke} bdef
/PR {MR fill} bdef
/L1i {{currentfile picstr readhexstring pop} image} bdef
/tMatrix matrix def
/MakeOval {newpath tMatrix currentmatrix pop translate scale
0 0 1 0 360 arc tMatrix setmatrix} bdef
/FO {MakeOval stroke} bdef
/PO {MakeOval fill} bdef
/PD {currentlinewidth 2 div 0 360 arc fill
   PDlw -1 eq not {PDlw w /PDlw -1 def} if} def
/FA {newpath tMatrix currentmatrix pop translate scale
  0 0 1 5 -2 roll arc tMatrix setmatrix stroke} bdef
/PA {newpath tMatrix currentmatrix pop	translate 0 0 moveto scale
  0 0 1 5 -2 roll arc closepath tMatrix setmatrix fill} bdef
/FAn {newpath tMatrix currentmatrix pop translate scale
  0 0 1 5 -2 roll arcn tMatrix setmatrix stroke} bdef
/PAn {newpath tMatrix currentmatrix pop translate 0 0 moveto scale
  0 0 1 5 -2 roll arcn closepath tMatrix setmatrix fill} bdef
/vradius 0 def /hradius 0 def /lry 0 def
/lrx 0 def /uly 0 def /ulx 0 def /rad 0 def
/MRR {/vradius xdef /hradius xdef /lry xdef /lrx xdef /uly xdef
  /ulx xdef newpath tMatrix currentmatrix pop ulx hradius add uly
  vradius add translate hradius vradius scale 0 0 1 180 270 arc 
  tMatrix setmatrix lrx hradius sub uly vradius add translate
  hradius vradius scale 0 0 1 270 360 arc tMatrix setmatrix
  lrx hradius sub lry vradius sub translate hradius vradius scale
  0 0 1 0 90 arc tMatrix setmatrix ulx hradius add lry vradius sub
  translate hradius vradius scale 0 0 1 90 180 arc tMatrix setmatrix
  closepath} bdef
/FRR {MRR stroke } bdef
/PRR {MRR fill } bdef
/MlrRR {/lry xdef /lrx xdef /uly xdef /ulx xdef /rad lry uly sub 2 div def
  newpath tMatrix currentmatrix pop ulx rad add uly rad add translate
  rad rad scale 0 0 1 90 270 arc tMatrix setmatrix lrx rad sub lry rad
  sub translate rad rad scale 0 0 1 270 90 arc tMatrix setmatrix
  closepath} bdef
/FlrRR {MlrRR stroke } bdef
/PlrRR {MlrRR fill } bdef
/MtbRR {/lry xdef /lrx xdef /uly xdef /ulx xdef /rad lrx ulx sub 2 div def
  newpath tMatrix currentmatrix pop ulx rad add uly rad add translate
  rad rad scale 0 0 1 180 360 arc tMatrix setmatrix lrx rad sub lry rad
  sub translate rad rad scale 0 0 1 0 180 arc tMatrix setmatrix
  closepath} bdef
/FtbRR {MtbRR stroke } bdef
/PtbRR {MtbRR fill } bdef
/stri 6 array def /dtri 6 array def
/smat 6 array def /dmat 6 array def
/tmat1 6 array def /tmat2 6 array def /dif 3 array def
/asub {/ind2 exch def /ind1 exch def dup dup
  ind1 get exch ind2 get sub exch } bdef
/tri_to_matrix {
  2 0 asub 3 1 asub 4 0 asub 5 1 asub
  dup 0 get exch 1 get 7 -1 roll astore } bdef
/compute_transform {
  dmat dtri tri_to_matrix tmat1 invertmatrix 
  smat stri tri_to_matrix tmat2 concatmatrix } bdef
/ds {stri astore pop} bdef
/dt {dtri astore pop} bdef
/db {2 copy /cols xdef /rows xdef mul dup 3 mul string
  currentfile 
  3 index 0 eq {/ASCIIHexDecode filter}
  {/ASCII85Decode filter 3 index 2 eq {/RunLengthDecode filter} if }
  ifelse exch readstring pop
  dup 0 3 index getinterval /rbmap xdef
  dup 2 index dup getinterval /gbmap xdef
  1 index dup 2 mul exch getinterval /bbmap xdef pop pop}bdef
/it {gs np dtri aload pop moveto lineto lineto cp c
  cols rows 8 compute_transform 
  rbmap gbmap bbmap true 3 colorimage gr}bdef
/il {newpath moveto lineto stroke}bdef
currentdict end def
%%EndProlog

%%BeginSetup
MathWorks begin

0 cap

end
%%EndSetup

%%Page: 1 1
%%BeginPageSetup
%%PageBoundingBox:    18    17   255   229
MathWorks begin
bpage
%%EndPageSetup

%%BeginObject: obj1
bplot

/dpi2point 8.33333 def
portraitMode 0150 1950 csm

    0    38  1978  1763 rc
85 dict begin %Colortable dictionary
/c0 { 0.000000 0.000000 0.000000 sr} bdef
/c1 { 1.000000 1.000000 1.000000 sr} bdef
/c2 { 0.900000 0.000000 0.000000 sr} bdef
/c3 { 0.000000 0.820000 0.000000 sr} bdef
/c4 { 0.000000 0.000000 0.800000 sr} bdef
/c5 { 0.910000 0.820000 0.320000 sr} bdef
/c6 { 1.000000 0.260000 0.820000 sr} bdef
/c7 { 0.000000 0.820000 0.820000 sr} bdef
c0
1 j
1 sg
   0    0 2072 1802 rf
4.16667 w
0 1445 1574 0 0 -1445 300 1580 4 MP
PP
-1574 0 0 1445 1574 0 0 -1445 300 1580 5 MP stroke
2.77778 w
DO
0 sg
 300 1580 mt  300  135 L
 300  135 mt  300  135 L
 614 1580 mt  614  135 L
 614  135 mt  614  135 L
 929 1580 mt  929  135 L
 929  135 mt  929  135 L
1244 1580 mt 1244  135 L
1244  135 mt 1244  135 L
1559 1580 mt 1559  135 L
1559  135 mt 1559  135 L
1874 1580 mt 1874  135 L
1874  135 mt 1874  135 L
 300 1580 mt 1874 1580 L
1874 1580 mt 1874 1580 L
 300 1399 mt 1874 1399 L
1874 1399 mt 1874 1399 L
 300 1218 mt 1874 1218 L
1874 1218 mt 1874 1218 L
 300 1038 mt 1874 1038 L
1874 1038 mt 1874 1038 L
 300  857 mt 1874  857 L
1874  857 mt 1874  857 L
 300  676 mt 1874  676 L
1874  676 mt 1874  676 L
 300  496 mt 1874  496 L
1874  496 mt 1874  496 L
 300  315 mt 1874  315 L
1874  315 mt 1874  315 L
 300  135 mt 1874  135 L
1874  135 mt 1874  135 L
SO
4.16667 w
 300  135 mt 1874  135 L
 300 1580 mt 1874 1580 L
1874 1580 mt 1874  135 L
 300 1580 mt  300  135 L
 300 1580 mt 1874 1580 L
 300 1580 mt  300  135 L
 300 1580 mt  300 1564 L
 300  135 mt  300  150 L
%%IncludeResource: font Helvetica
/Helvetica /WindowsLatin1Encoding 83.3333 FMSR

 277 1681 mt 
(0) s
 614 1580 mt  614 1564 L
 614  135 mt  614  150 L
 568 1681 mt 
(20) s
 929 1580 mt  929 1564 L
 929  135 mt  929  150 L
 883 1681 mt 
(40) s
1244 1580 mt 1244 1564 L
1244  135 mt 1244  150 L
1198 1681 mt 
(60) s
1559 1580 mt 1559 1564 L
1559  135 mt 1559  150 L
1513 1681 mt 
(80) s
1874 1580 mt 1874 1564 L
1874  135 mt 1874  150 L
1805 1681 mt 
(100) s
 300 1580 mt  315 1580 L
1874 1580 mt 1858 1580 L
 230 1610 mt 
(0) s
 300 1399 mt  315 1399 L
1874 1399 mt 1858 1399 L
 137 1429 mt 
(100) s
 300 1218 mt  315 1218 L
1874 1218 mt 1858 1218 L
 137 1248 mt 
(200) s
 300 1038 mt  315 1038 L
1874 1038 mt 1858 1038 L
 137 1068 mt 
(300) s
 300  857 mt  315  857 L
1874  857 mt 1858  857 L
 137  887 mt 
(400) s
 300  676 mt  315  676 L
1874  676 mt 1858  676 L
 137  706 mt 
(500) s
 300  496 mt  315  496 L
1874  496 mt 1858  496 L
 137  526 mt 
(600) s
 300  315 mt  315  315 L
1874  315 mt 1858  315 L
 137  345 mt 
(700) s
 300  135 mt  315  135 L
1874  135 mt 1858  135 L
 137  165 mt 
(800) s
 300  135 mt 1874  135 L
 300 1580 mt 1874 1580 L
1874 1580 mt 1874  135 L
 300 1580 mt  300  135 L
gs 300 135 1575 1446 rc
8.33333 w
/c8 { 0.000000 0.000000 1.000000 sr} bdef
c8
1 0 16 -4 16 -5 16 -4 15 -4 16 -5 16 -4 16 -5 
15 -4 16 -5 16 -4 16 -6 15 -4 16 -6 16 -5 16 -5 
15 -5 16 -6 16 -6 16 -5 15 -6 16 -5 16 -6 16 -6 
15 -6 16 -7 16 -6 15 -6 16 -6 16 -7 16 -7 15 -7 
16 -7 16 -6 16 -8 15 -7 16 -7 16 -7 16 -8 15 -9 
16 -8 16 -8 16 -8 15 -8 16 -9 16 -8 16 -8 15 -9 
16 -10 16 -9 15 -9 16 -9 16 -10 16 -10 15 -10 16 -11 
16 -11 16 -10 15 -11 16 -12 16 -11 16 -12 15 -12 16 -12 
16 -13 16 -13 15 -13 16 -13 16 -14 16 -14 15 -14 16 -15 
16 -15 16 -16 15 -16 16 -17 16 -18 15 -18 16 -18 16 -19 
16 -20 15 -21 16 -22 16 -22 16 -24 15 -24 16 -26 16 -26 
16 -29 15 -30 16 -32 16 -34 16 -34 15 -34 16 -35 16 -34 
16 -35 15 -34 16 -34 16 -35 315 1545 101 MP stroke
/c9 { 0.000000 0.500000 0.000000 sr} bdef
c9
1 0 16 0 16 0 16 0 15 0 16 0 16 0 16 0 
15 0 16 0 16 0 16 -1 15 0 16 0 16 0 16 0 
15 -1 16 0 16 0 16 0 15 -1 16 0 16 -1 16 0 
15 0 16 -1 16 -1 15 0 16 -1 16 -1 16 -1 15 -1 
16 -1 16 -1 16 -1 15 -2 16 -2 16 -2 16 -2 15 -2 
16 -3 16 -3 16 -3 15 -4 16 -4 16 -4 16 -5 15 -4 
16 -6 16 -6 15 -6 16 -7 16 -7 16 -9 15 -9 16 -10 
16 -11 16 -11 15 -12 16 -14 16 -13 16 -15 15 -16 16 -16 
16 -17 16 -19 15 -19 16 -20 16 -21 16 -20 15 -22 16 -24 
16 -23 16 -25 15 -26 16 -27 16 -27 15 -28 16 -30 16 -31 
16 -32 15 -33 16 -34 16 -34 16 -33 15 -34 16 -35 16 -33 
16 -34 15 -35 16 -34 16 -34 16 -35 15 -34 16 -35 16 -34 
16 -35 15 -35 16 -35 16 -34 315 1544 101 MP stroke
/c10 { 1.000000 0.000000 0.000000 sr} bdef
c10
1 0 16 0 16 0 16 0 15 0 16 0 16 0 16 0 
15 0 16 0 16 0 16 0 15 0 16 0 16 0 16 0 
15 0 16 0 16 0 16 0 15 0 16 0 16 0 16 0 
15 0 16 0 16 0 15 0 16 0 16 0 16 0 15 0 
16 0 16 0 16 0 15 0 16 0 16 0 16 0 15 0 
16 0 16 0 16 0 15 0 16 0 16 0 16 0 15 0 
16 0 16 0 15 0 16 0 16 0 16 0 15 -1 16 -1 
16 -2 16 -3 15 -5 16 -7 16 -10 16 -13 15 -16 16 -19 
16 -22 16 -25 15 -27 16 -28 16 -31 16 -31 15 -32 16 -32 
16 -32 16 -33 15 -33 16 -32 16 -33 15 -32 16 -34 16 -33 
16 -33 15 -33 16 -34 16 -34 16 -33 15 -34 16 -34 16 -33 
16 -34 15 -34 16 -34 16 -34 16 -34 15 -34 16 -34 16 -34 
16 -34 15 -35 16 -34 16 -35 315 1545 101 MP stroke
/c11 { 0.000000 0.750000 0.750000 sr} bdef
c11
1 0 16 0 16 0 16 0 15 0 16 0 16 0 16 0 
15 0 16 0 16 0 16 0 15 0 16 0 16 0 16 0 
15 0 16 0 16 0 16 0 15 0 16 0 16 0 16 0 
15 0 16 0 16 0 15 0 16 0 16 0 16 0 15 0 
16 0 16 0 16 0 15 0 16 0 16 0 16 0 15 0 
16 0 16 0 16 0 15 0 16 0 16 0 16 0 15 0 
16 0 16 0 15 0 16 0 16 0 16 -1 15 -1 16 -1 
16 -3 16 -3 15 -5 16 -8 16 -10 16 -13 15 -16 16 -20 
16 -22 16 -25 15 -27 16 -30 16 -30 16 -31 15 -32 16 -32 
16 -33 16 -33 15 -33 16 -33 16 -33 15 -34 16 -33 16 -33 
16 -34 15 -33 16 -34 16 -34 16 -33 15 -34 16 -34 16 -34 
16 -34 15 -34 16 -35 16 -34 16 -34 15 -34 16 -35 16 -34 
16 -35 15 -35 16 -34 16 -35 315 1545 101 MP stroke
/c12 { 0.750000 0.000000 0.750000 sr} bdef
c12
1 0 16 0 16 0 16 0 15 0 16 0 16 0 16 0 
15 0 16 0 16 0 16 0 15 0 16 0 16 0 16 0 
15 0 16 0 16 0 16 0 15 0 16 0 16 0 16 0 
15 0 16 0 16 0 15 0 16 0 16 0 16 0 15 0 
16 0 16 0 16 0 15 0 16 0 16 0 16 0 15 0 
16 0 16 0 16 0 15 0 16 0 16 0 16 0 15 0 
16 0 16 0 15 0 16 0 16 0 16 -1 15 0 16 -2 
16 -2 16 -4 15 -5 16 -8 16 -9 16 -13 15 -16 16 -18 
16 -22 16 -25 15 -27 16 -29 16 -30 16 -31 15 -32 16 -32 
16 -33 16 -33 15 -33 16 -33 16 -33 15 -33 16 -34 16 -33 
16 -34 15 -33 16 -34 16 -33 16 -34 15 -33 16 -34 16 -34 
16 -34 15 -34 16 -34 16 -34 16 -34 15 -35 16 -34 16 -34 
16 -35 15 -35 16 -34 16 -35 315 1545 101 MP stroke
gr

8.33333 w
c12
0 sg
 809 1781 mt 
(Rounds of play) s
  80 1218 mt  -90 rotate
(Accumulated regret) s
90 rotate
 288 1611 mt 
( ) s
1863  165 mt 
( ) s
4.16667 w
1 sg
0 550 575 0 0 -550 1102 1395 4 MP
PP
-575 0 0 550 575 0 0 -550 1102 1395 5 MP stroke
2.77778 w
DO
SO
4.16667 w
0 sg
1102  845 mt 1677  845 L
1102 1395 mt 1677 1395 L
1677 1395 mt 1677  845 L
1102 1395 mt 1102  845 L
1102 1395 mt 1677 1395 L
1102 1395 mt 1102  845 L
1102  845 mt 1677  845 L
1102 1395 mt 1677 1395 L
1677 1395 mt 1677  845 L
1102 1395 mt 1102  845 L
%%IncludeResource: font Symbol
/Symbol /WindowsLatin1Encoding 66.6667 FMSR

1428  936 mt 
(e) s
%%IncludeResource: font Helvetica
/Helvetica /WindowsLatin1Encoding 66.6667 FMSR

1457  936 mt 
( = 10) s
gs 1102 845 576 551 rc
8.33333 w
c8
250 0 1152 911 2 MP stroke
gr

8.33333 w
c8
0 sg
%%IncludeResource: font Symbol
/Symbol /WindowsLatin1Encoding 66.6667 FMSR

1428 1040 mt 
(e) s
%%IncludeResource: font Helvetica
/Helvetica /WindowsLatin1Encoding 66.6667 FMSR

1457 1040 mt 
( = 20) s
gs 1102 845 576 551 rc
c9
250 0 1152 1015 2 MP stroke
gr

c9
0 sg
%%IncludeResource: font Symbol
/Symbol /WindowsLatin1Encoding 66.6667 FMSR

1428 1145 mt 
(e) s
%%IncludeResource: font Helvetica
/Helvetica /WindowsLatin1Encoding 66.6667 FMSR

1457 1145 mt 
( = 50) s
gs 1102 845 576 551 rc
c10
250 0 1152 1120 2 MP stroke
gr

c10
0 sg
%%IncludeResource: font Symbol
/Symbol /WindowsLatin1Encoding 66.6667 FMSR

1428 1249 mt 
(e) s
%%IncludeResource: font Helvetica
/Helvetica /WindowsLatin1Encoding 66.6667 FMSR

1457 1249 mt 
( = 100) s
gs 1102 845 576 551 rc
c11
250 0 1152 1224 2 MP stroke
gr

c11
0 sg
%%IncludeResource: font Symbol
/Symbol /WindowsLatin1Encoding 66.6667 FMSR

1428 1353 mt 
(e) s
%%IncludeResource: font Helvetica
/Helvetica /WindowsLatin1Encoding 66.6667 FMSR

1457 1353 mt 
( = 500) s
gs 1102 845 576 551 rc
c12
250 0 1152 1328 2 MP stroke
4.16667 w
gr

4.16667 w
c12

end %%Color Dict

eplot
%%EndObject

epage
end

showpage

%%Trailer
%%EOF
