%!PS-Adobe-3.0 EPSF-3.0
%%Creator: MATLAB, The MathWorks, Inc. Version 7.12.0.635 (R2011a). Operating System: Microsoft Windows 7.
%%Title: .\detGreedyLog.eps
%%CreationDate: 07/29/2014  15:13:40
%%DocumentNeededFonts: Helvetica
%%DocumentProcessColors: Cyan Magenta Yellow Black
%%LanguageLevel: 2
%%Pages: 1
%%BoundingBox:    18    17   269   237
%%EndComments

%%BeginProlog
% MathWorks dictionary
/MathWorks 160 dict begin
% definition operators
/bdef {bind def} bind def
/ldef {load def} bind def
/xdef {exch def} bdef
/xstore {exch store} bdef
% operator abbreviations
/c  /clip ldef
/cc /concat ldef
/cp /closepath ldef
/gr /grestore ldef
/gs /gsave ldef
/mt /moveto ldef
/np /newpath ldef
/cm /currentmatrix ldef
/sm /setmatrix ldef
/rm /rmoveto ldef
/rl /rlineto ldef
/s {show newpath} bdef
/sc {setcmykcolor} bdef
/sr /setrgbcolor ldef
/sg /setgray ldef
/w /setlinewidth ldef
/j /setlinejoin ldef
/cap /setlinecap ldef
/rc {rectclip} bdef
/rf {rectfill} bdef
% page state control
/pgsv () def
/bpage {/pgsv save def} bdef
/epage {pgsv restore} bdef
/bplot /gsave ldef
/eplot {stroke grestore} bdef
% orientation switch
/portraitMode 0 def /landscapeMode 1 def /rotateMode 2 def
% coordinate system mappings
/dpi2point 0 def
% font control
/FontSize 0 def
/FMS {/FontSize xstore findfont [FontSize 0 0 FontSize neg 0 0]
  makefont setfont} bdef
/ISOLatin1Encoding where {pop /WindowsLatin1Encoding 256 array bdef
ISOLatin1Encoding WindowsLatin1Encoding copy pop
/.notdef/.notdef/quotesinglbase/florin/quotedblbase/ellipsis/dagger
/daggerdbl/circumflex/perthousand/Scaron/guilsinglleft/OE/.notdef/.notdef
/.notdef/.notdef/quoteleft/quoteright/quotedblleft/quotedblright/bullet
/endash/emdash/tilde/trademark/scaron/guilsinglright/oe/.notdef/.notdef
/Ydieresis WindowsLatin1Encoding 128 32 getinterval astore pop}
{/WindowsLatin1Encoding StandardEncoding bdef} ifelse
/reencode {exch dup where {pop load} {pop StandardEncoding} ifelse
  exch dup 3 1 roll findfont dup length dict begin
  { 1 index /FID ne {def}{pop pop} ifelse } forall
  /Encoding exch def currentdict end definefont pop} bdef
/isroman {findfont /CharStrings get /Agrave known} bdef
/FMSR {3 1 roll 1 index dup isroman {reencode} {pop pop} ifelse
  exch FMS} bdef
/csm {1 dpi2point div -1 dpi2point div scale neg translate
 dup landscapeMode eq {pop -90 rotate}
  {rotateMode eq {90 rotate} if} ifelse} bdef
% line types: solid, dotted, dashed, dotdash
/SO { [] 0 setdash } bdef
/DO { [.5 dpi2point mul 4 dpi2point mul] 0 setdash } bdef
/DA { [6 dpi2point mul] 0 setdash } bdef
/DD { [.5 dpi2point mul 4 dpi2point mul 6 dpi2point mul 4
  dpi2point mul] 0 setdash } bdef
% macros for lines and objects
/L {lineto stroke} bdef
/MP {3 1 roll moveto 1 sub {rlineto} repeat} bdef
/AP {{rlineto} repeat} bdef
/PDlw -1 def
/W {/PDlw currentlinewidth def setlinewidth} def
/PP {closepath eofill} bdef
/DP {closepath stroke} bdef
/MR {4 -2 roll moveto dup  0 exch rlineto exch 0 rlineto
  neg 0 exch rlineto closepath} bdef
/FR {MR stroke} bdef
/PR {MR fill} bdef
/L1i {{currentfile picstr readhexstring pop} image} bdef
/tMatrix matrix def
/MakeOval {newpath tMatrix currentmatrix pop translate scale
0 0 1 0 360 arc tMatrix setmatrix} bdef
/FO {MakeOval stroke} bdef
/PO {MakeOval fill} bdef
/PD {currentlinewidth 2 div 0 360 arc fill
   PDlw -1 eq not {PDlw w /PDlw -1 def} if} def
/FA {newpath tMatrix currentmatrix pop translate scale
  0 0 1 5 -2 roll arc tMatrix setmatrix stroke} bdef
/PA {newpath tMatrix currentmatrix pop	translate 0 0 moveto scale
  0 0 1 5 -2 roll arc closepath tMatrix setmatrix fill} bdef
/FAn {newpath tMatrix currentmatrix pop translate scale
  0 0 1 5 -2 roll arcn tMatrix setmatrix stroke} bdef
/PAn {newpath tMatrix currentmatrix pop translate 0 0 moveto scale
  0 0 1 5 -2 roll arcn closepath tMatrix setmatrix fill} bdef
/vradius 0 def /hradius 0 def /lry 0 def
/lrx 0 def /uly 0 def /ulx 0 def /rad 0 def
/MRR {/vradius xdef /hradius xdef /lry xdef /lrx xdef /uly xdef
  /ulx xdef newpath tMatrix currentmatrix pop ulx hradius add uly
  vradius add translate hradius vradius scale 0 0 1 180 270 arc 
  tMatrix setmatrix lrx hradius sub uly vradius add translate
  hradius vradius scale 0 0 1 270 360 arc tMatrix setmatrix
  lrx hradius sub lry vradius sub translate hradius vradius scale
  0 0 1 0 90 arc tMatrix setmatrix ulx hradius add lry vradius sub
  translate hradius vradius scale 0 0 1 90 180 arc tMatrix setmatrix
  closepath} bdef
/FRR {MRR stroke } bdef
/PRR {MRR fill } bdef
/MlrRR {/lry xdef /lrx xdef /uly xdef /ulx xdef /rad lry uly sub 2 div def
  newpath tMatrix currentmatrix pop ulx rad add uly rad add translate
  rad rad scale 0 0 1 90 270 arc tMatrix setmatrix lrx rad sub lry rad
  sub translate rad rad scale 0 0 1 270 90 arc tMatrix setmatrix
  closepath} bdef
/FlrRR {MlrRR stroke } bdef
/PlrRR {MlrRR fill } bdef
/MtbRR {/lry xdef /lrx xdef /uly xdef /ulx xdef /rad lrx ulx sub 2 div def
  newpath tMatrix currentmatrix pop ulx rad add uly rad add translate
  rad rad scale 0 0 1 180 360 arc tMatrix setmatrix lrx rad sub lry rad
  sub translate rad rad scale 0 0 1 0 180 arc tMatrix setmatrix
  closepath} bdef
/FtbRR {MtbRR stroke } bdef
/PtbRR {MtbRR fill } bdef
/stri 6 array def /dtri 6 array def
/smat 6 array def /dmat 6 array def
/tmat1 6 array def /tmat2 6 array def /dif 3 array def
/asub {/ind2 exch def /ind1 exch def dup dup
  ind1 get exch ind2 get sub exch } bdef
/tri_to_matrix {
  2 0 asub 3 1 asub 4 0 asub 5 1 asub
  dup 0 get exch 1 get 7 -1 roll astore } bdef
/compute_transform {
  dmat dtri tri_to_matrix tmat1 invertmatrix 
  smat stri tri_to_matrix tmat2 concatmatrix } bdef
/ds {stri astore pop} bdef
/dt {dtri astore pop} bdef
/db {2 copy /cols xdef /rows xdef mul dup 3 mul string
  currentfile 
  3 index 0 eq {/ASCIIHexDecode filter}
  {/ASCII85Decode filter 3 index 2 eq {/RunLengthDecode filter} if }
  ifelse exch readstring pop
  dup 0 3 index getinterval /rbmap xdef
  dup 2 index dup getinterval /gbmap xdef
  1 index dup 2 mul exch getinterval /bbmap xdef pop pop}bdef
/it {gs np dtri aload pop moveto lineto lineto cp c
  cols rows 8 compute_transform 
  rbmap gbmap bbmap true 3 colorimage gr}bdef
/il {newpath moveto lineto stroke}bdef
currentdict end def
%%EndProlog

%%BeginSetup
MathWorks begin

0 cap

end
%%EndSetup

%%Page: 1 1
%%BeginPageSetup
%%PageBoundingBox:    18    17   269   237
MathWorks begin
bpage
%%EndPageSetup

%%BeginObject: obj1
bplot

/dpi2point 8.33333 def
portraitMode 0150 1950 csm

    0   -33  2095  1834 rc
86 dict begin %Colortable dictionary
/c0 { 0.000000 0.000000 0.000000 sr} bdef
/c1 { 1.000000 1.000000 1.000000 sr} bdef
/c2 { 0.900000 0.000000 0.000000 sr} bdef
/c3 { 0.000000 0.820000 0.000000 sr} bdef
/c4 { 0.000000 0.000000 0.800000 sr} bdef
/c5 { 0.910000 0.820000 0.320000 sr} bdef
/c6 { 1.000000 0.260000 0.820000 sr} bdef
/c7 { 0.000000 0.820000 0.820000 sr} bdef
c0
1 j
1 sg
   0    0 2072 1802 rf
4.16667 w
0 1401 1574 0 0 -1401 300 1580 4 MP
PP
-1574 0 0 1401 1574 0 0 -1401 300 1580 5 MP stroke
2.77778 w
DO
SO
4.16667 w
0 sg
 300  179 mt 1874  179 L
 300 1580 mt 1874 1580 L
1874 1580 mt 1874  179 L
 300 1580 mt  300  179 L
 300 1580 mt 1874 1580 L
 300 1580 mt  300  179 L
 305 1580 mt  305 1564 L
 305  179 mt  305  194 L
%%IncludeResource: font Helvetica
/Helvetica /WindowsLatin1Encoding 83.3333 FMSR

 282 1681 mt 
(0) s
 822 1580 mt  822 1564 L
 822  179 mt  822  194 L
 776 1681 mt 
(50) s
1340 1580 mt 1340 1564 L
1340  179 mt 1340  194 L
1271 1681 mt 
(100) s
1858 1580 mt 1858 1564 L
1858  179 mt 1858  194 L
1789 1681 mt 
(150) s
 300 1459 mt  315 1459 L
1874 1459 mt 1858 1459 L
 137 1489 mt 
(100) s
 300 1316 mt  315 1316 L
1874 1316 mt 1858 1316 L
 137 1346 mt 
(200) s
 300 1174 mt  315 1174 L
1874 1174 mt 1858 1174 L
 137 1204 mt 
(300) s
 300 1031 mt  315 1031 L
1874 1031 mt 1858 1031 L
 137 1061 mt 
(400) s
 300  888 mt  315  888 L
1874  888 mt 1858  888 L
 137  918 mt 
(500) s
 300  745 mt  315  745 L
1874  745 mt 1858  745 L
 137  775 mt 
(600) s
 300  602 mt  315  602 L
1874  602 mt 1858  602 L
 137  632 mt 
(700) s
 300  459 mt  315  459 L
1874  459 mt 1858  459 L
 137  489 mt 
(800) s
 300  316 mt  315  316 L
1874  316 mt 1858  316 L
 137  346 mt 
(900) s
 300  179 mt 1874  179 L
 300 1580 mt 1874 1580 L
1874 1580 mt 1874  179 L
 300 1580 mt  300  179 L
gs 300 179 1575 1402 rc
/c8 { 1.000000 0.000000 0.000000 sr} bdef
c8
0 6 315 1572 2 MP stroke
30 0 300 1572 2 MP stroke
30 0 300 1578 2 MP stroke
0 8 325 1539 2 MP stroke
31 0 310 1539 2 MP stroke
31 0 310 1547 2 MP stroke
0 10 336 1504 2 MP stroke
31 0 320 1504 2 MP stroke
31 0 320 1514 2 MP stroke
0 12 346 1470 2 MP stroke
30 0 331 1470 2 MP stroke
30 0 331 1482 2 MP stroke
0 16 356 1436 2 MP stroke
31 0 341 1436 2 MP stroke
31 0 341 1452 2 MP stroke
0 19 367 1402 2 MP stroke
31 0 351 1402 2 MP stroke
31 0 351 1421 2 MP stroke
0 21 377 1366 2 MP stroke
31 0 362 1366 2 MP stroke
31 0 362 1387 2 MP stroke
0 25 387 1330 2 MP stroke
31 0 372 1330 2 MP stroke
31 0 372 1355 2 MP stroke
0 26 398 1297 2 MP stroke
31 0 382 1297 2 MP stroke
31 0 382 1323 2 MP stroke
0 29 408 1263 2 MP stroke
31 0 393 1263 2 MP stroke
31 0 393 1292 2 MP stroke
0 32 418 1229 2 MP stroke
31 0 403 1229 2 MP stroke
31 0 403 1261 2 MP stroke
0 33 429 1195 2 MP stroke
31 0 413 1195 2 MP stroke
31 0 413 1228 2 MP stroke
0 36 439 1161 2 MP stroke
31 0 424 1161 2 MP stroke
31 0 424 1197 2 MP stroke
0 39 450 1125 2 MP stroke
31 0 434 1125 2 MP stroke
31 0 434 1164 2 MP stroke
0 41 460 1091 2 MP stroke
31 0 444 1091 2 MP stroke
31 0 444 1132 2 MP stroke
0 42 470 1058 2 MP stroke
31 0 455 1058 2 MP stroke
31 0 455 1100 2 MP stroke
0 44 481 1025 2 MP stroke
31 0 465 1025 2 MP stroke
31 0 465 1069 2 MP stroke
0 47 491 990 2 MP stroke
30 0 476 990 2 MP stroke
30 0 476 1037 2 MP stroke
0 50 501 956 2 MP stroke
31 0 486 956 2 MP stroke
31 0 486 1006 2 MP stroke
0 53 512 921 2 MP stroke
31 0 496 921 2 MP stroke
31 0 496 974 2 MP stroke
0 55 522 887 2 MP stroke
30 0 507 887 2 MP stroke
30 0 507 942 2 MP stroke
0 58 532 853 2 MP stroke
31 0 517 853 2 MP stroke
31 0 517 911 2 MP stroke
0 60 543 820 2 MP stroke
31 0 527 820 2 MP stroke
31 0 527 880 2 MP stroke
0 62 553 787 2 MP stroke
31 0 538 787 2 MP stroke
31 0 538 849 2 MP stroke
0 65 563 753 2 MP stroke
31 0 548 753 2 MP stroke
31 0 548 818 2 MP stroke
0 68 574 719 2 MP stroke
31 0 558 719 2 MP stroke
31 0 558 787 2 MP stroke
0 71 584 686 2 MP stroke
31 0 569 686 2 MP stroke
31 0 569 757 2 MP stroke
0 74 595 653 2 MP stroke
31 0 579 653 2 MP stroke
31 0 579 727 2 MP stroke
0 76 605 621 2 MP stroke
31 0 589 621 2 MP stroke
31 0 589 697 2 MP stroke
0 78 615 588 2 MP stroke
31 0 600 588 2 MP stroke
31 0 600 666 2 MP stroke
0 81 626 554 2 MP stroke
31 0 610 554 2 MP stroke
31 0 610 635 2 MP stroke
0 84 636 521 2 MP stroke
30 0 621 521 2 MP stroke
30 0 621 605 2 MP stroke
0 87 646 487 2 MP stroke
31 0 631 487 2 MP stroke
31 0 631 574 2 MP stroke
0 90 657 456 2 MP stroke
31 0 641 456 2 MP stroke
31 0 641 546 2 MP stroke
0 92 667 432 2 MP stroke
30 0 652 432 2 MP stroke
30 0 652 524 2 MP stroke
0 94 677 407 2 MP stroke
31 0 662 407 2 MP stroke
31 0 662 501 2 MP stroke
0 97 688 386 2 MP stroke
31 0 672 386 2 MP stroke
31 0 672 483 2 MP stroke
0 99 698 370 2 MP stroke
31 0 683 370 2 MP stroke
31 0 683 469 2 MP stroke
0 100 708 358 2 MP stroke
31 0 693 358 2 MP stroke
31 0 693 458 2 MP stroke
0 103 719 345 2 MP stroke
31 0 703 345 2 MP stroke
31 0 703 448 2 MP stroke
0 105 729 335 2 MP stroke
31 0 714 335 2 MP stroke
31 0 714 440 2 MP stroke
0 107 740 327 2 MP stroke
31 0 724 327 2 MP stroke
31 0 724 434 2 MP stroke
0 107 750 323 2 MP stroke
31 0 734 323 2 MP stroke
31 0 734 430 2 MP stroke
0 108 760 320 2 MP stroke
31 0 745 320 2 MP stroke
31 0 745 428 2 MP stroke
0 109 771 317 2 MP stroke
31 0 755 317 2 MP stroke
31 0 755 426 2 MP stroke
0 109 781 314 2 MP stroke
30 0 766 314 2 MP stroke
30 0 766 423 2 MP stroke
0 109 791 313 2 MP stroke
31 0 776 313 2 MP stroke
31 0 776 422 2 MP stroke
0 110 802 312 2 MP stroke
31 0 786 312 2 MP stroke
31 0 786 422 2 MP stroke
0 110 812 312 2 MP stroke
30 0 797 312 2 MP stroke
30 0 797 422 2 MP stroke
0 109 822 312 2 MP stroke
31 0 807 312 2 MP stroke
31 0 807 421 2 MP stroke
0 110 833 311 2 MP stroke
31 0 817 311 2 MP stroke
31 0 817 421 2 MP stroke
0 110 843 311 2 MP stroke
31 0 828 311 2 MP stroke
31 0 828 421 2 MP stroke
0 110 853 311 2 MP stroke
31 0 838 311 2 MP stroke
31 0 838 421 2 MP stroke
0 110 864 311 2 MP stroke
31 0 848 311 2 MP stroke
31 0 848 421 2 MP stroke
0 110 874 311 2 MP stroke
31 0 859 311 2 MP stroke
31 0 859 421 2 MP stroke
0 110 885 311 2 MP stroke
31 0 869 311 2 MP stroke
31 0 869 421 2 MP stroke
0 110 895 311 2 MP stroke
31 0 879 311 2 MP stroke
31 0 879 421 2 MP stroke
0 110 905 311 2 MP stroke
31 0 890 311 2 MP stroke
31 0 890 421 2 MP stroke
0 110 916 311 2 MP stroke
31 0 900 311 2 MP stroke
31 0 900 421 2 MP stroke
0 110 926 311 2 MP stroke
30 0 911 311 2 MP stroke
30 0 911 421 2 MP stroke
0 110 936 311 2 MP stroke
31 0 921 311 2 MP stroke
31 0 921 421 2 MP stroke
0 110 947 311 2 MP stroke
31 0 931 311 2 MP stroke
31 0 931 421 2 MP stroke
0 110 957 311 2 MP stroke
30 0 942 311 2 MP stroke
30 0 942 421 2 MP stroke
0 110 967 311 2 MP stroke
31 0 952 311 2 MP stroke
31 0 952 421 2 MP stroke
0 110 978 311 2 MP stroke
31 0 962 311 2 MP stroke
31 0 962 421 2 MP stroke
0 110 988 311 2 MP stroke
31 0 973 311 2 MP stroke
31 0 973 421 2 MP stroke
0 110 998 311 2 MP stroke
31 0 983 311 2 MP stroke
31 0 983 421 2 MP stroke
0 110 1009 311 2 MP stroke
31 0 993 311 2 MP stroke
31 0 993 421 2 MP stroke
0 110 1019 311 2 MP stroke
31 0 1004 311 2 MP stroke
31 0 1004 421 2 MP stroke
0 110 1030 311 2 MP stroke
31 0 1014 311 2 MP stroke
31 0 1014 421 2 MP stroke
0 110 1040 311 2 MP stroke
31 0 1024 311 2 MP stroke
31 0 1024 421 2 MP stroke
0 110 1050 311 2 MP stroke
31 0 1035 311 2 MP stroke
31 0 1035 421 2 MP stroke
0 110 1061 311 2 MP stroke
31 0 1045 311 2 MP stroke
31 0 1045 421 2 MP stroke
0 110 1071 311 2 MP stroke
30 0 1056 311 2 MP stroke
30 0 1056 421 2 MP stroke
0 110 1081 311 2 MP stroke
31 0 1066 311 2 MP stroke
31 0 1066 421 2 MP stroke
0 110 1092 311 2 MP stroke
31 0 1076 311 2 MP stroke
31 0 1076 421 2 MP stroke
0 110 1102 311 2 MP stroke
30 0 1087 311 2 MP stroke
30 0 1087 421 2 MP stroke
0 110 1112 311 2 MP stroke
31 0 1097 311 2 MP stroke
31 0 1097 421 2 MP stroke
0 110 1123 311 2 MP stroke
31 0 1107 311 2 MP stroke
31 0 1107 421 2 MP stroke
0 110 1133 311 2 MP stroke
31 0 1118 311 2 MP stroke
31 0 1118 421 2 MP stroke
0 110 1143 311 2 MP stroke
31 0 1128 311 2 MP stroke
31 0 1128 421 2 MP stroke
0 110 1154 311 2 MP stroke
31 0 1138 311 2 MP stroke
31 0 1138 421 2 MP stroke
0 110 1164 311 2 MP stroke
31 0 1149 311 2 MP stroke
31 0 1149 421 2 MP stroke
0 110 1175 311 2 MP stroke
31 0 1159 311 2 MP stroke
31 0 1159 421 2 MP stroke
0 110 1185 311 2 MP stroke
31 0 1169 311 2 MP stroke
31 0 1169 421 2 MP stroke
0 110 1195 311 2 MP stroke
31 0 1180 311 2 MP stroke
31 0 1180 421 2 MP stroke
0 110 1206 311 2 MP stroke
31 0 1190 311 2 MP stroke
31 0 1190 421 2 MP stroke
0 110 1216 311 2 MP stroke
30 0 1201 311 2 MP stroke
30 0 1201 421 2 MP stroke
0 110 1226 311 2 MP stroke
31 0 1211 311 2 MP stroke
31 0 1211 421 2 MP stroke
0 110 1237 311 2 MP stroke
31 0 1221 311 2 MP stroke
31 0 1221 421 2 MP stroke
0 110 1247 311 2 MP stroke
30 0 1232 311 2 MP stroke
30 0 1232 421 2 MP stroke
0 110 1257 311 2 MP stroke
31 0 1242 311 2 MP stroke
31 0 1242 421 2 MP stroke
0 110 1268 311 2 MP stroke
31 0 1252 311 2 MP stroke
31 0 1252 421 2 MP stroke
0 110 1278 311 2 MP stroke
31 0 1263 311 2 MP stroke
31 0 1263 421 2 MP stroke
0 110 1288 311 2 MP stroke
31 0 1273 311 2 MP stroke
31 0 1273 421 2 MP stroke
0 110 1299 311 2 MP stroke
31 0 1283 311 2 MP stroke
31 0 1283 421 2 MP stroke
0 110 1309 311 2 MP stroke
31 0 1294 311 2 MP stroke
31 0 1294 421 2 MP stroke
0 110 1320 311 2 MP stroke
31 0 1304 311 2 MP stroke
31 0 1304 421 2 MP stroke
0 110 1330 311 2 MP stroke
31 0 1314 311 2 MP stroke
31 0 1314 421 2 MP stroke
0 110 1340 311 2 MP stroke
31 0 1325 311 2 MP stroke
31 0 1325 421 2 MP stroke
0 110 1351 311 2 MP stroke
31 0 1335 311 2 MP stroke
31 0 1335 421 2 MP stroke
0 110 1361 311 2 MP stroke
30 0 1346 311 2 MP stroke
30 0 1346 421 2 MP stroke
0 110 1371 311 2 MP stroke
31 0 1356 311 2 MP stroke
31 0 1356 421 2 MP stroke
0 110 1382 311 2 MP stroke
31 0 1366 311 2 MP stroke
31 0 1366 421 2 MP stroke
0 110 1392 311 2 MP stroke
30 0 1377 311 2 MP stroke
30 0 1377 421 2 MP stroke
0 110 1402 311 2 MP stroke
31 0 1387 311 2 MP stroke
31 0 1387 421 2 MP stroke
0 110 1413 311 2 MP stroke
31 0 1397 311 2 MP stroke
31 0 1397 421 2 MP stroke
0 110 1423 311 2 MP stroke
31 0 1408 311 2 MP stroke
31 0 1408 421 2 MP stroke
0 110 1433 311 2 MP stroke
31 0 1418 311 2 MP stroke
31 0 1418 421 2 MP stroke
0 110 1444 311 2 MP stroke
31 0 1428 311 2 MP stroke
31 0 1428 421 2 MP stroke
0 110 1454 311 2 MP stroke
31 0 1439 311 2 MP stroke
31 0 1439 421 2 MP stroke
0 110 1465 311 2 MP stroke
31 0 1449 311 2 MP stroke
31 0 1449 421 2 MP stroke
0 110 1475 311 2 MP stroke
31 0 1459 311 2 MP stroke
31 0 1459 421 2 MP stroke
0 110 1485 311 2 MP stroke
31 0 1470 311 2 MP stroke
31 0 1470 421 2 MP stroke
0 110 1496 311 2 MP stroke
31 0 1480 311 2 MP stroke
31 0 1480 421 2 MP stroke
0 110 1506 311 2 MP stroke
30 0 1491 311 2 MP stroke
30 0 1491 421 2 MP stroke
0 110 1516 311 2 MP stroke
31 0 1501 311 2 MP stroke
31 0 1501 421 2 MP stroke
0 110 1527 311 2 MP stroke
31 0 1511 311 2 MP stroke
31 0 1511 421 2 MP stroke
0 110 1537 311 2 MP stroke
30 0 1522 311 2 MP stroke
30 0 1522 421 2 MP stroke
0 110 1547 311 2 MP stroke
31 0 1532 311 2 MP stroke
31 0 1532 421 2 MP stroke
0 110 1558 311 2 MP stroke
31 0 1542 311 2 MP stroke
31 0 1542 421 2 MP stroke
0 110 1568 311 2 MP stroke
31 0 1553 311 2 MP stroke
31 0 1553 421 2 MP stroke
0 110 1578 311 2 MP stroke
31 0 1563 311 2 MP stroke
31 0 1563 421 2 MP stroke
0 110 1589 311 2 MP stroke
31 0 1573 311 2 MP stroke
31 0 1573 421 2 MP stroke
0 110 1599 311 2 MP stroke
31 0 1584 311 2 MP stroke
31 0 1584 421 2 MP stroke
0 110 1610 311 2 MP stroke
31 0 1594 311 2 MP stroke
31 0 1594 421 2 MP stroke
0 110 1620 311 2 MP stroke
31 0 1604 311 2 MP stroke
31 0 1604 421 2 MP stroke
0 110 1630 311 2 MP stroke
31 0 1615 311 2 MP stroke
31 0 1615 421 2 MP stroke
0 110 1641 311 2 MP stroke
31 0 1625 311 2 MP stroke
31 0 1625 421 2 MP stroke
0 110 1651 311 2 MP stroke
30 0 1636 311 2 MP stroke
30 0 1636 421 2 MP stroke
0 110 1661 311 2 MP stroke
31 0 1646 311 2 MP stroke
31 0 1646 421 2 MP stroke
0 110 1672 311 2 MP stroke
31 0 1656 311 2 MP stroke
31 0 1656 421 2 MP stroke
0 110 1682 311 2 MP stroke
30 0 1667 311 2 MP stroke
30 0 1667 421 2 MP stroke
0 110 1692 311 2 MP stroke
31 0 1677 311 2 MP stroke
31 0 1677 421 2 MP stroke
0 110 1703 311 2 MP stroke
31 0 1687 311 2 MP stroke
31 0 1687 421 2 MP stroke
0 110 1713 311 2 MP stroke
31 0 1698 311 2 MP stroke
31 0 1698 421 2 MP stroke
0 110 1723 311 2 MP stroke
31 0 1708 311 2 MP stroke
31 0 1708 421 2 MP stroke
0 110 1734 311 2 MP stroke
31 0 1718 311 2 MP stroke
31 0 1718 421 2 MP stroke
0 110 1744 311 2 MP stroke
31 0 1729 311 2 MP stroke
31 0 1729 421 2 MP stroke
0 110 1755 311 2 MP stroke
31 0 1739 311 2 MP stroke
31 0 1739 421 2 MP stroke
0 110 1765 311 2 MP stroke
31 0 1749 311 2 MP stroke
31 0 1749 421 2 MP stroke
0 110 1775 311 2 MP stroke
31 0 1760 311 2 MP stroke
31 0 1760 421 2 MP stroke
0 110 1786 311 2 MP stroke
31 0 1770 311 2 MP stroke
31 0 1770 421 2 MP stroke
0 110 1796 311 2 MP stroke
31 0 1780 311 2 MP stroke
31 0 1780 421 2 MP stroke
0 110 1806 311 2 MP stroke
31 0 1791 311 2 MP stroke
31 0 1791 421 2 MP stroke
0 110 1817 311 2 MP stroke
31 0 1801 311 2 MP stroke
31 0 1801 421 2 MP stroke
0 110 1827 311 2 MP stroke
30 0 1812 311 2 MP stroke
30 0 1812 421 2 MP stroke
0 110 1837 311 2 MP stroke
31 0 1822 311 2 MP stroke
31 0 1822 421 2 MP stroke
0 110 1848 311 2 MP stroke
31 0 1832 311 2 MP stroke
31 0 1832 421 2 MP stroke
0 110 1858 311 2 MP stroke
31 0 1843 311 2 MP stroke
31 0 1843 421 2 MP stroke
10 0 11 0 10 0 10 0 11 0 10 0 10 0 11 0 
10 0 10 0 11 0 10 0 11 0 10 0 10 0 11 0 
10 0 10 0 11 0 10 0 10 0 11 0 10 0 10 0 
11 0 10 0 11 0 10 0 10 0 11 0 10 0 10 0 
11 0 10 0 10 0 11 0 10 0 10 0 11 0 10 0 
11 0 10 0 10 0 11 0 10 0 10 0 11 0 10 0 
10 0 11 0 10 0 10 0 11 0 10 0 11 0 10 0 
10 0 11 0 10 0 10 0 11 0 10 0 10 0 11 0 
10 0 10 0 11 0 10 0 11 0 10 0 10 0 11 0 
10 0 10 0 11 0 10 0 10 0 11 0 10 0 10 0 
11 0 10 0 11 0 10 0 10 0 11 0 10 0 10 0 
11 0 10 0 10 0 11 0 10 0 10 0 11 0 10 0 
11 0 10 0 10 0 11 0 10 -1 10 0 11 -1 10 -1 
10 -2 11 -3 10 -3 10 -4 11 -6 10 -10 11 -11 10 -11 
10 -15 11 -20 10 -24 10 -23 11 -29 10 -33 10 -31 11 -33 
10 -32 10 -31 11 -32 10 -31 11 -32 10 -33 10 -32 11 -32 
10 -33 10 -33 11 -33 10 -33 10 -33 11 -32 10 -33 10 -32 
11 -35 10 -33 11 -33 10 -33 10 -32 11 -32 10 -34 10 -36 
11 -32 10 -32 10 -33 11 -34 10 -32 315 1575 150 MP stroke
/c9 { 0.000000 1.000000 0.000000 sr} bdef
c9
0 6 315 1573 2 MP stroke
30 0 300 1573 2 MP stroke
30 0 300 1579 2 MP stroke
0 7 325 1537 2 MP stroke
31 0 310 1537 2 MP stroke
31 0 310 1544 2 MP stroke
0 9 336 1504 2 MP stroke
31 0 320 1504 2 MP stroke
31 0 320 1513 2 MP stroke
0 12 346 1469 2 MP stroke
30 0 331 1469 2 MP stroke
30 0 331 1481 2 MP stroke
0 13 356 1435 2 MP stroke
31 0 341 1435 2 MP stroke
31 0 341 1448 2 MP stroke
0 15 367 1403 2 MP stroke
31 0 351 1403 2 MP stroke
31 0 351 1418 2 MP stroke
0 17 377 1370 2 MP stroke
31 0 362 1370 2 MP stroke
31 0 362 1387 2 MP stroke
0 20 387 1336 2 MP stroke
31 0 372 1336 2 MP stroke
31 0 372 1356 2 MP stroke
0 22 398 1302 2 MP stroke
31 0 382 1302 2 MP stroke
31 0 382 1324 2 MP stroke
0 24 408 1267 2 MP stroke
31 0 393 1267 2 MP stroke
31 0 393 1291 2 MP stroke
0 26 418 1234 2 MP stroke
31 0 403 1234 2 MP stroke
31 0 403 1260 2 MP stroke
0 29 429 1200 2 MP stroke
31 0 413 1200 2 MP stroke
31 0 413 1229 2 MP stroke
0 31 439 1166 2 MP stroke
31 0 424 1166 2 MP stroke
31 0 424 1197 2 MP stroke
0 33 450 1131 2 MP stroke
31 0 434 1131 2 MP stroke
31 0 434 1164 2 MP stroke
0 35 460 1097 2 MP stroke
31 0 444 1097 2 MP stroke
31 0 444 1132 2 MP stroke
0 39 470 1063 2 MP stroke
31 0 455 1063 2 MP stroke
31 0 455 1102 2 MP stroke
0 41 481 1029 2 MP stroke
31 0 465 1029 2 MP stroke
31 0 465 1070 2 MP stroke
0 44 491 995 2 MP stroke
30 0 476 995 2 MP stroke
30 0 476 1039 2 MP stroke
0 46 501 964 2 MP stroke
31 0 486 964 2 MP stroke
31 0 486 1010 2 MP stroke
0 47 512 930 2 MP stroke
31 0 496 930 2 MP stroke
31 0 496 977 2 MP stroke
0 50 522 894 2 MP stroke
30 0 507 894 2 MP stroke
30 0 507 944 2 MP stroke
0 52 532 859 2 MP stroke
31 0 517 859 2 MP stroke
31 0 517 911 2 MP stroke
0 55 543 825 2 MP stroke
31 0 527 825 2 MP stroke
31 0 527 880 2 MP stroke
0 57 553 791 2 MP stroke
31 0 538 791 2 MP stroke
31 0 538 848 2 MP stroke
0 60 563 755 2 MP stroke
31 0 548 755 2 MP stroke
31 0 548 815 2 MP stroke
0 62 574 720 2 MP stroke
31 0 558 720 2 MP stroke
31 0 558 782 2 MP stroke
0 65 584 687 2 MP stroke
31 0 569 687 2 MP stroke
31 0 569 752 2 MP stroke
0 67 595 655 2 MP stroke
31 0 579 655 2 MP stroke
31 0 579 722 2 MP stroke
0 68 605 622 2 MP stroke
31 0 589 622 2 MP stroke
31 0 589 690 2 MP stroke
0 71 615 589 2 MP stroke
31 0 600 589 2 MP stroke
31 0 600 660 2 MP stroke
0 72 626 557 2 MP stroke
31 0 610 557 2 MP stroke
31 0 610 629 2 MP stroke
0 75 636 526 2 MP stroke
30 0 621 526 2 MP stroke
30 0 621 601 2 MP stroke
0 76 646 497 2 MP stroke
31 0 631 497 2 MP stroke
31 0 631 573 2 MP stroke
0 78 657 469 2 MP stroke
31 0 641 469 2 MP stroke
31 0 641 547 2 MP stroke
0 79 667 445 2 MP stroke
30 0 652 445 2 MP stroke
30 0 652 524 2 MP stroke
0 82 677 419 2 MP stroke
31 0 662 419 2 MP stroke
31 0 662 501 2 MP stroke
0 84 688 397 2 MP stroke
31 0 672 397 2 MP stroke
31 0 672 481 2 MP stroke
0 86 698 380 2 MP stroke
31 0 683 380 2 MP stroke
31 0 683 466 2 MP stroke
0 89 708 367 2 MP stroke
31 0 693 367 2 MP stroke
31 0 693 456 2 MP stroke
0 90 719 358 2 MP stroke
31 0 703 358 2 MP stroke
31 0 703 448 2 MP stroke
0 92 729 352 2 MP stroke
31 0 714 352 2 MP stroke
31 0 714 444 2 MP stroke
0 93 740 348 2 MP stroke
31 0 724 348 2 MP stroke
31 0 724 441 2 MP stroke
0 93 750 346 2 MP stroke
31 0 734 346 2 MP stroke
31 0 734 439 2 MP stroke
0 94 760 344 2 MP stroke
31 0 745 344 2 MP stroke
31 0 745 438 2 MP stroke
0 95 771 342 2 MP stroke
31 0 755 342 2 MP stroke
31 0 755 437 2 MP stroke
0 95 781 341 2 MP stroke
30 0 766 341 2 MP stroke
30 0 766 436 2 MP stroke
0 96 791 340 2 MP stroke
31 0 776 340 2 MP stroke
31 0 776 436 2 MP stroke
0 96 802 339 2 MP stroke
31 0 786 339 2 MP stroke
31 0 786 435 2 MP stroke
0 96 812 339 2 MP stroke
30 0 797 339 2 MP stroke
30 0 797 435 2 MP stroke
0 96 822 339 2 MP stroke
31 0 807 339 2 MP stroke
31 0 807 435 2 MP stroke
0 96 833 339 2 MP stroke
31 0 817 339 2 MP stroke
31 0 817 435 2 MP stroke
0 96 843 339 2 MP stroke
31 0 828 339 2 MP stroke
31 0 828 435 2 MP stroke
0 96 853 339 2 MP stroke
31 0 838 339 2 MP stroke
31 0 838 435 2 MP stroke
0 96 864 339 2 MP stroke
31 0 848 339 2 MP stroke
31 0 848 435 2 MP stroke
0 96 874 339 2 MP stroke
31 0 859 339 2 MP stroke
31 0 859 435 2 MP stroke
0 96 885 339 2 MP stroke
31 0 869 339 2 MP stroke
31 0 869 435 2 MP stroke
0 96 895 339 2 MP stroke
31 0 879 339 2 MP stroke
31 0 879 435 2 MP stroke
0 96 905 339 2 MP stroke
31 0 890 339 2 MP stroke
31 0 890 435 2 MP stroke
0 96 916 339 2 MP stroke
31 0 900 339 2 MP stroke
31 0 900 435 2 MP stroke
0 96 926 339 2 MP stroke
30 0 911 339 2 MP stroke
30 0 911 435 2 MP stroke
0 96 936 339 2 MP stroke
31 0 921 339 2 MP stroke
31 0 921 435 2 MP stroke
0 96 947 339 2 MP stroke
31 0 931 339 2 MP stroke
31 0 931 435 2 MP stroke
0 96 957 339 2 MP stroke
30 0 942 339 2 MP stroke
30 0 942 435 2 MP stroke
0 96 967 339 2 MP stroke
31 0 952 339 2 MP stroke
31 0 952 435 2 MP stroke
0 96 978 339 2 MP stroke
31 0 962 339 2 MP stroke
31 0 962 435 2 MP stroke
0 96 988 339 2 MP stroke
31 0 973 339 2 MP stroke
31 0 973 435 2 MP stroke
0 96 998 339 2 MP stroke
31 0 983 339 2 MP stroke
31 0 983 435 2 MP stroke
0 96 1009 339 2 MP stroke
31 0 993 339 2 MP stroke
31 0 993 435 2 MP stroke
0 96 1019 339 2 MP stroke
31 0 1004 339 2 MP stroke
31 0 1004 435 2 MP stroke
0 96 1030 339 2 MP stroke
31 0 1014 339 2 MP stroke
31 0 1014 435 2 MP stroke
0 96 1040 339 2 MP stroke
31 0 1024 339 2 MP stroke
31 0 1024 435 2 MP stroke
0 96 1050 339 2 MP stroke
31 0 1035 339 2 MP stroke
31 0 1035 435 2 MP stroke
0 96 1061 339 2 MP stroke
31 0 1045 339 2 MP stroke
31 0 1045 435 2 MP stroke
0 96 1071 339 2 MP stroke
30 0 1056 339 2 MP stroke
30 0 1056 435 2 MP stroke
0 96 1081 339 2 MP stroke
31 0 1066 339 2 MP stroke
31 0 1066 435 2 MP stroke
0 96 1092 339 2 MP stroke
31 0 1076 339 2 MP stroke
31 0 1076 435 2 MP stroke
0 96 1102 339 2 MP stroke
30 0 1087 339 2 MP stroke
30 0 1087 435 2 MP stroke
0 96 1112 339 2 MP stroke
31 0 1097 339 2 MP stroke
31 0 1097 435 2 MP stroke
0 96 1123 339 2 MP stroke
31 0 1107 339 2 MP stroke
31 0 1107 435 2 MP stroke
0 96 1133 339 2 MP stroke
31 0 1118 339 2 MP stroke
31 0 1118 435 2 MP stroke
0 96 1143 339 2 MP stroke
31 0 1128 339 2 MP stroke
31 0 1128 435 2 MP stroke
0 96 1154 339 2 MP stroke
31 0 1138 339 2 MP stroke
31 0 1138 435 2 MP stroke
0 96 1164 339 2 MP stroke
31 0 1149 339 2 MP stroke
31 0 1149 435 2 MP stroke
0 96 1175 339 2 MP stroke
31 0 1159 339 2 MP stroke
31 0 1159 435 2 MP stroke
0 96 1185 339 2 MP stroke
31 0 1169 339 2 MP stroke
31 0 1169 435 2 MP stroke
0 96 1195 339 2 MP stroke
31 0 1180 339 2 MP stroke
31 0 1180 435 2 MP stroke
0 96 1206 339 2 MP stroke
31 0 1190 339 2 MP stroke
31 0 1190 435 2 MP stroke
0 96 1216 339 2 MP stroke
30 0 1201 339 2 MP stroke
30 0 1201 435 2 MP stroke
0 96 1226 339 2 MP stroke
31 0 1211 339 2 MP stroke
31 0 1211 435 2 MP stroke
0 96 1237 339 2 MP stroke
31 0 1221 339 2 MP stroke
31 0 1221 435 2 MP stroke
0 96 1247 339 2 MP stroke
30 0 1232 339 2 MP stroke
30 0 1232 435 2 MP stroke
0 96 1257 339 2 MP stroke
31 0 1242 339 2 MP stroke
31 0 1242 435 2 MP stroke
0 96 1268 339 2 MP stroke
31 0 1252 339 2 MP stroke
31 0 1252 435 2 MP stroke
0 96 1278 339 2 MP stroke
31 0 1263 339 2 MP stroke
31 0 1263 435 2 MP stroke
0 96 1288 339 2 MP stroke
31 0 1273 339 2 MP stroke
31 0 1273 435 2 MP stroke
0 96 1299 339 2 MP stroke
31 0 1283 339 2 MP stroke
31 0 1283 435 2 MP stroke
0 96 1309 339 2 MP stroke
31 0 1294 339 2 MP stroke
31 0 1294 435 2 MP stroke
0 96 1320 339 2 MP stroke
31 0 1304 339 2 MP stroke
31 0 1304 435 2 MP stroke
0 96 1330 339 2 MP stroke
31 0 1314 339 2 MP stroke
31 0 1314 435 2 MP stroke
0 96 1340 339 2 MP stroke
31 0 1325 339 2 MP stroke
31 0 1325 435 2 MP stroke
0 96 1351 339 2 MP stroke
31 0 1335 339 2 MP stroke
31 0 1335 435 2 MP stroke
0 96 1361 339 2 MP stroke
30 0 1346 339 2 MP stroke
30 0 1346 435 2 MP stroke
0 96 1371 339 2 MP stroke
31 0 1356 339 2 MP stroke
31 0 1356 435 2 MP stroke
0 96 1382 339 2 MP stroke
31 0 1366 339 2 MP stroke
31 0 1366 435 2 MP stroke
0 96 1392 339 2 MP stroke
30 0 1377 339 2 MP stroke
30 0 1377 435 2 MP stroke
0 96 1402 339 2 MP stroke
31 0 1387 339 2 MP stroke
31 0 1387 435 2 MP stroke
0 96 1413 339 2 MP stroke
31 0 1397 339 2 MP stroke
31 0 1397 435 2 MP stroke
0 96 1423 339 2 MP stroke
31 0 1408 339 2 MP stroke
31 0 1408 435 2 MP stroke
0 96 1433 339 2 MP stroke
31 0 1418 339 2 MP stroke
31 0 1418 435 2 MP stroke
0 96 1444 339 2 MP stroke
31 0 1428 339 2 MP stroke
31 0 1428 435 2 MP stroke
0 96 1454 339 2 MP stroke
31 0 1439 339 2 MP stroke
31 0 1439 435 2 MP stroke
0 96 1465 339 2 MP stroke
31 0 1449 339 2 MP stroke
31 0 1449 435 2 MP stroke
0 96 1475 339 2 MP stroke
31 0 1459 339 2 MP stroke
31 0 1459 435 2 MP stroke
0 96 1485 339 2 MP stroke
31 0 1470 339 2 MP stroke
31 0 1470 435 2 MP stroke
0 96 1496 339 2 MP stroke
31 0 1480 339 2 MP stroke
31 0 1480 435 2 MP stroke
0 96 1506 339 2 MP stroke
30 0 1491 339 2 MP stroke
30 0 1491 435 2 MP stroke
0 96 1516 339 2 MP stroke
31 0 1501 339 2 MP stroke
31 0 1501 435 2 MP stroke
0 96 1527 339 2 MP stroke
31 0 1511 339 2 MP stroke
31 0 1511 435 2 MP stroke
0 96 1537 339 2 MP stroke
30 0 1522 339 2 MP stroke
30 0 1522 435 2 MP stroke
0 96 1547 339 2 MP stroke
31 0 1532 339 2 MP stroke
31 0 1532 435 2 MP stroke
0 96 1558 339 2 MP stroke
31 0 1542 339 2 MP stroke
31 0 1542 435 2 MP stroke
0 96 1568 339 2 MP stroke
31 0 1553 339 2 MP stroke
31 0 1553 435 2 MP stroke
0 96 1578 339 2 MP stroke
31 0 1563 339 2 MP stroke
31 0 1563 435 2 MP stroke
0 96 1589 339 2 MP stroke
31 0 1573 339 2 MP stroke
31 0 1573 435 2 MP stroke
0 96 1599 339 2 MP stroke
31 0 1584 339 2 MP stroke
31 0 1584 435 2 MP stroke
0 96 1610 339 2 MP stroke
31 0 1594 339 2 MP stroke
31 0 1594 435 2 MP stroke
0 96 1620 339 2 MP stroke
31 0 1604 339 2 MP stroke
31 0 1604 435 2 MP stroke
0 96 1630 339 2 MP stroke
31 0 1615 339 2 MP stroke
31 0 1615 435 2 MP stroke
0 96 1641 339 2 MP stroke
31 0 1625 339 2 MP stroke
31 0 1625 435 2 MP stroke
0 96 1651 339 2 MP stroke
30 0 1636 339 2 MP stroke
30 0 1636 435 2 MP stroke
0 96 1661 339 2 MP stroke
31 0 1646 339 2 MP stroke
31 0 1646 435 2 MP stroke
0 96 1672 339 2 MP stroke
31 0 1656 339 2 MP stroke
31 0 1656 435 2 MP stroke
0 96 1682 339 2 MP stroke
30 0 1667 339 2 MP stroke
30 0 1667 435 2 MP stroke
0 96 1692 339 2 MP stroke
31 0 1677 339 2 MP stroke
31 0 1677 435 2 MP stroke
0 96 1703 339 2 MP stroke
31 0 1687 339 2 MP stroke
31 0 1687 435 2 MP stroke
0 96 1713 339 2 MP stroke
31 0 1698 339 2 MP stroke
31 0 1698 435 2 MP stroke
0 96 1723 339 2 MP stroke
31 0 1708 339 2 MP stroke
31 0 1708 435 2 MP stroke
0 96 1734 339 2 MP stroke
31 0 1718 339 2 MP stroke
31 0 1718 435 2 MP stroke
0 96 1744 339 2 MP stroke
31 0 1729 339 2 MP stroke
31 0 1729 435 2 MP stroke
0 96 1755 339 2 MP stroke
31 0 1739 339 2 MP stroke
31 0 1739 435 2 MP stroke
0 96 1765 339 2 MP stroke
31 0 1749 339 2 MP stroke
31 0 1749 435 2 MP stroke
0 96 1775 339 2 MP stroke
31 0 1760 339 2 MP stroke
31 0 1760 435 2 MP stroke
0 96 1786 339 2 MP stroke
31 0 1770 339 2 MP stroke
31 0 1770 435 2 MP stroke
0 96 1796 339 2 MP stroke
31 0 1780 339 2 MP stroke
31 0 1780 435 2 MP stroke
0 96 1806 339 2 MP stroke
31 0 1791 339 2 MP stroke
31 0 1791 435 2 MP stroke
0 96 1817 339 2 MP stroke
31 0 1801 339 2 MP stroke
31 0 1801 435 2 MP stroke
0 96 1827 339 2 MP stroke
30 0 1812 339 2 MP stroke
30 0 1812 435 2 MP stroke
0 96 1837 339 2 MP stroke
31 0 1822 339 2 MP stroke
31 0 1822 435 2 MP stroke
0 96 1848 339 2 MP stroke
31 0 1832 339 2 MP stroke
31 0 1832 435 2 MP stroke
0 96 1858 339 2 MP stroke
31 0 1843 339 2 MP stroke
31 0 1843 435 2 MP stroke
10 0 11 0 10 0 10 0 11 0 10 0 10 0 11 0 
10 0 10 0 11 0 10 0 11 0 10 0 10 0 11 0 
10 0 10 0 11 0 10 0 10 0 11 0 10 0 10 0 
11 0 10 0 11 0 10 0 10 0 11 0 10 0 10 0 
11 0 10 0 10 0 11 0 10 0 10 0 11 0 10 0 
11 0 10 0 10 0 11 0 10 0 10 0 11 0 10 0 
10 0 11 0 10 0 10 0 11 0 10 0 11 0 10 0 
10 0 11 0 10 0 10 0 11 0 10 0 10 0 11 0 
10 0 10 0 11 0 10 0 11 0 10 0 10 0 11 0 
10 0 10 0 11 0 10 0 10 0 11 0 10 0 10 0 
11 0 10 0 11 0 10 0 10 0 11 0 10 0 10 0 
11 0 10 0 10 0 11 0 10 0 10 0 11 0 10 0 
11 0 10 0 10 0 11 0 10 0 10 0 11 -1 10 0 
10 -2 11 -1 10 -2 10 -1 11 -4 10 -5 11 -8 10 -12 
10 -16 11 -21 10 -24 10 -24 11 -27 10 -29 10 -29 11 -31 
10 -32 10 -32 11 -31 10 -32 11 -34 10 -34 10 -34 11 -32 
10 -34 10 -34 11 -34 10 -30 10 -33 11 -33 10 -31 10 -34 
11 -33 10 -33 11 -33 10 -32 10 -34 11 -33 10 -32 10 -32 
11 -32 10 -33 10 -33 11 -33 10 -35 315 1576 150 MP stroke
/c10 { 0.000000 0.000000 1.000000 sr} bdef
c10
0 6 315 1574 2 MP stroke
30 0 300 1574 2 MP stroke
30 0 300 1580 2 MP stroke
0 7 325 1537 2 MP stroke
31 0 310 1537 2 MP stroke
31 0 310 1544 2 MP stroke
0 10 336 1501 2 MP stroke
31 0 320 1501 2 MP stroke
31 0 320 1511 2 MP stroke
0 12 346 1465 2 MP stroke
30 0 331 1465 2 MP stroke
30 0 331 1477 2 MP stroke
0 15 356 1429 2 MP stroke
31 0 341 1429 2 MP stroke
31 0 341 1444 2 MP stroke
0 18 367 1394 2 MP stroke
31 0 351 1394 2 MP stroke
31 0 351 1412 2 MP stroke
0 21 377 1357 2 MP stroke
31 0 362 1357 2 MP stroke
31 0 362 1378 2 MP stroke
0 23 387 1321 2 MP stroke
31 0 372 1321 2 MP stroke
31 0 372 1344 2 MP stroke
0 25 398 1284 2 MP stroke
31 0 382 1284 2 MP stroke
31 0 382 1309 2 MP stroke
0 29 408 1246 2 MP stroke
31 0 393 1246 2 MP stroke
31 0 393 1275 2 MP stroke
0 30 418 1210 2 MP stroke
31 0 403 1210 2 MP stroke
31 0 403 1240 2 MP stroke
0 33 429 1174 2 MP stroke
31 0 413 1174 2 MP stroke
31 0 413 1207 2 MP stroke
0 36 439 1140 2 MP stroke
31 0 424 1140 2 MP stroke
31 0 424 1176 2 MP stroke
0 39 450 1105 2 MP stroke
31 0 434 1105 2 MP stroke
31 0 434 1144 2 MP stroke
0 42 460 1070 2 MP stroke
31 0 444 1070 2 MP stroke
31 0 444 1112 2 MP stroke
0 44 470 1039 2 MP stroke
31 0 455 1039 2 MP stroke
31 0 455 1083 2 MP stroke
0 47 481 1005 2 MP stroke
31 0 465 1005 2 MP stroke
31 0 465 1052 2 MP stroke
0 50 491 976 2 MP stroke
30 0 476 976 2 MP stroke
30 0 476 1026 2 MP stroke
0 53 501 946 2 MP stroke
31 0 486 946 2 MP stroke
31 0 486 999 2 MP stroke
0 56 512 917 2 MP stroke
31 0 496 917 2 MP stroke
31 0 496 973 2 MP stroke
0 58 522 889 2 MP stroke
30 0 507 889 2 MP stroke
30 0 507 947 2 MP stroke
0 61 532 860 2 MP stroke
31 0 517 860 2 MP stroke
31 0 517 921 2 MP stroke
0 62 543 835 2 MP stroke
31 0 527 835 2 MP stroke
31 0 527 897 2 MP stroke
0 64 553 808 2 MP stroke
31 0 538 808 2 MP stroke
31 0 538 872 2 MP stroke
0 65 563 786 2 MP stroke
31 0 548 786 2 MP stroke
31 0 548 851 2 MP stroke
0 68 574 763 2 MP stroke
31 0 558 763 2 MP stroke
31 0 558 831 2 MP stroke
0 71 584 739 2 MP stroke
31 0 569 739 2 MP stroke
31 0 569 810 2 MP stroke
0 73 595 713 2 MP stroke
31 0 579 713 2 MP stroke
31 0 579 786 2 MP stroke
0 75 605 694 2 MP stroke
31 0 589 694 2 MP stroke
31 0 589 769 2 MP stroke
0 77 615 674 2 MP stroke
31 0 600 674 2 MP stroke
31 0 600 751 2 MP stroke
0 80 626 650 2 MP stroke
31 0 610 650 2 MP stroke
31 0 610 730 2 MP stroke
0 81 636 631 2 MP stroke
30 0 621 631 2 MP stroke
30 0 621 712 2 MP stroke
0 83 646 610 2 MP stroke
31 0 631 610 2 MP stroke
31 0 631 693 2 MP stroke
0 84 657 593 2 MP stroke
31 0 641 593 2 MP stroke
31 0 641 677 2 MP stroke
0 85 667 572 2 MP stroke
30 0 652 572 2 MP stroke
30 0 652 657 2 MP stroke
0 87 677 554 2 MP stroke
31 0 662 554 2 MP stroke
31 0 662 641 2 MP stroke
0 89 688 535 2 MP stroke
31 0 672 535 2 MP stroke
31 0 672 624 2 MP stroke
0 91 698 516 2 MP stroke
31 0 683 516 2 MP stroke
31 0 683 607 2 MP stroke
0 92 708 501 2 MP stroke
31 0 693 501 2 MP stroke
31 0 693 593 2 MP stroke
0 94 719 485 2 MP stroke
31 0 703 485 2 MP stroke
31 0 703 579 2 MP stroke
0 96 729 465 2 MP stroke
31 0 714 465 2 MP stroke
31 0 714 561 2 MP stroke
0 97 740 448 2 MP stroke
31 0 724 448 2 MP stroke
31 0 724 545 2 MP stroke
0 98 750 428 2 MP stroke
31 0 734 428 2 MP stroke
31 0 734 526 2 MP stroke
0 100 760 414 2 MP stroke
31 0 745 414 2 MP stroke
31 0 745 514 2 MP stroke
0 101 771 399 2 MP stroke
31 0 755 399 2 MP stroke
31 0 755 500 2 MP stroke
0 104 781 380 2 MP stroke
30 0 766 380 2 MP stroke
30 0 766 484 2 MP stroke
0 105 791 370 2 MP stroke
31 0 776 370 2 MP stroke
31 0 776 475 2 MP stroke
0 106 802 354 2 MP stroke
31 0 786 354 2 MP stroke
31 0 786 460 2 MP stroke
0 107 812 344 2 MP stroke
30 0 797 344 2 MP stroke
30 0 797 451 2 MP stroke
0 107 822 334 2 MP stroke
31 0 807 334 2 MP stroke
31 0 807 441 2 MP stroke
0 107 833 325 2 MP stroke
31 0 817 325 2 MP stroke
31 0 817 432 2 MP stroke
0 108 843 314 2 MP stroke
31 0 828 314 2 MP stroke
31 0 828 422 2 MP stroke
0 109 853 307 2 MP stroke
31 0 838 307 2 MP stroke
31 0 838 416 2 MP stroke
0 110 864 300 2 MP stroke
31 0 848 300 2 MP stroke
31 0 848 410 2 MP stroke
0 111 874 289 2 MP stroke
31 0 859 289 2 MP stroke
31 0 859 400 2 MP stroke
0 112 885 284 2 MP stroke
31 0 869 284 2 MP stroke
31 0 869 396 2 MP stroke
0 113 895 278 2 MP stroke
31 0 879 278 2 MP stroke
31 0 879 391 2 MP stroke
0 114 905 269 2 MP stroke
31 0 890 269 2 MP stroke
31 0 890 383 2 MP stroke
0 115 916 264 2 MP stroke
31 0 900 264 2 MP stroke
31 0 900 379 2 MP stroke
0 116 926 257 2 MP stroke
30 0 911 257 2 MP stroke
30 0 911 373 2 MP stroke
0 116 936 253 2 MP stroke
31 0 921 253 2 MP stroke
31 0 921 369 2 MP stroke
0 117 947 250 2 MP stroke
31 0 931 250 2 MP stroke
31 0 931 367 2 MP stroke
0 118 957 245 2 MP stroke
30 0 942 245 2 MP stroke
30 0 942 363 2 MP stroke
0 118 967 241 2 MP stroke
31 0 952 241 2 MP stroke
31 0 952 359 2 MP stroke
0 118 978 238 2 MP stroke
31 0 962 238 2 MP stroke
31 0 962 356 2 MP stroke
0 119 988 235 2 MP stroke
31 0 973 235 2 MP stroke
31 0 973 354 2 MP stroke
0 119 998 232 2 MP stroke
31 0 983 232 2 MP stroke
31 0 983 351 2 MP stroke
0 120 1009 229 2 MP stroke
31 0 993 229 2 MP stroke
31 0 993 349 2 MP stroke
0 121 1019 225 2 MP stroke
31 0 1004 225 2 MP stroke
31 0 1004 346 2 MP stroke
0 121 1030 222 2 MP stroke
31 0 1014 222 2 MP stroke
31 0 1014 343 2 MP stroke
0 122 1040 217 2 MP stroke
31 0 1024 217 2 MP stroke
31 0 1024 339 2 MP stroke
0 123 1050 215 2 MP stroke
31 0 1035 215 2 MP stroke
31 0 1035 338 2 MP stroke
0 123 1061 212 2 MP stroke
31 0 1045 212 2 MP stroke
31 0 1045 335 2 MP stroke
0 123 1071 210 2 MP stroke
30 0 1056 210 2 MP stroke
30 0 1056 333 2 MP stroke
0 123 1081 207 2 MP stroke
31 0 1066 207 2 MP stroke
31 0 1066 330 2 MP stroke
0 124 1092 204 2 MP stroke
31 0 1076 204 2 MP stroke
31 0 1076 328 2 MP stroke
0 125 1102 201 2 MP stroke
30 0 1087 201 2 MP stroke
30 0 1087 326 2 MP stroke
0 125 1112 200 2 MP stroke
31 0 1097 200 2 MP stroke
31 0 1097 325 2 MP stroke
0 127 1123 196 2 MP stroke
31 0 1107 196 2 MP stroke
31 0 1107 323 2 MP stroke
0 127 1133 195 2 MP stroke
31 0 1118 195 2 MP stroke
31 0 1118 322 2 MP stroke
0 127 1143 194 2 MP stroke
31 0 1128 194 2 MP stroke
31 0 1128 321 2 MP stroke
0 126 1154 194 2 MP stroke
31 0 1138 194 2 MP stroke
31 0 1138 320 2 MP stroke
0 127 1164 193 2 MP stroke
31 0 1149 193 2 MP stroke
31 0 1149 320 2 MP stroke
0 128 1175 191 2 MP stroke
31 0 1159 191 2 MP stroke
31 0 1159 319 2 MP stroke
0 128 1185 190 2 MP stroke
31 0 1169 190 2 MP stroke
31 0 1169 318 2 MP stroke
0 128 1195 189 2 MP stroke
31 0 1180 189 2 MP stroke
31 0 1180 317 2 MP stroke
0 128 1206 188 2 MP stroke
31 0 1190 188 2 MP stroke
31 0 1190 316 2 MP stroke
0 128 1216 188 2 MP stroke
30 0 1201 188 2 MP stroke
30 0 1201 316 2 MP stroke
0 128 1226 186 2 MP stroke
31 0 1211 186 2 MP stroke
31 0 1211 314 2 MP stroke
0 129 1237 185 2 MP stroke
31 0 1221 185 2 MP stroke
31 0 1221 314 2 MP stroke
0 128 1247 185 2 MP stroke
30 0 1232 185 2 MP stroke
30 0 1232 313 2 MP stroke
0 128 1257 185 2 MP stroke
31 0 1242 185 2 MP stroke
31 0 1242 313 2 MP stroke
0 128 1268 185 2 MP stroke
31 0 1252 185 2 MP stroke
31 0 1252 313 2 MP stroke
0 128 1278 184 2 MP stroke
31 0 1263 184 2 MP stroke
31 0 1263 312 2 MP stroke
0 128 1288 184 2 MP stroke
31 0 1273 184 2 MP stroke
31 0 1273 312 2 MP stroke
0 128 1299 183 2 MP stroke
31 0 1283 183 2 MP stroke
31 0 1283 311 2 MP stroke
0 128 1309 183 2 MP stroke
31 0 1294 183 2 MP stroke
31 0 1294 311 2 MP stroke
0 128 1320 183 2 MP stroke
31 0 1304 183 2 MP stroke
31 0 1304 311 2 MP stroke
0 128 1330 183 2 MP stroke
31 0 1314 183 2 MP stroke
31 0 1314 311 2 MP stroke
0 129 1340 182 2 MP stroke
31 0 1325 182 2 MP stroke
31 0 1325 311 2 MP stroke
0 129 1351 182 2 MP stroke
31 0 1335 182 2 MP stroke
31 0 1335 311 2 MP stroke
0 129 1361 182 2 MP stroke
30 0 1346 182 2 MP stroke
30 0 1346 311 2 MP stroke
0 129 1371 182 2 MP stroke
31 0 1356 182 2 MP stroke
31 0 1356 311 2 MP stroke
0 129 1382 182 2 MP stroke
31 0 1366 182 2 MP stroke
31 0 1366 311 2 MP stroke
0 128 1392 182 2 MP stroke
30 0 1377 182 2 MP stroke
30 0 1377 310 2 MP stroke
0 128 1402 182 2 MP stroke
31 0 1387 182 2 MP stroke
31 0 1387 310 2 MP stroke
0 128 1413 182 2 MP stroke
31 0 1397 182 2 MP stroke
31 0 1397 310 2 MP stroke
0 128 1423 182 2 MP stroke
31 0 1408 182 2 MP stroke
31 0 1408 310 2 MP stroke
0 128 1433 182 2 MP stroke
31 0 1418 182 2 MP stroke
31 0 1418 310 2 MP stroke
0 128 1444 182 2 MP stroke
31 0 1428 182 2 MP stroke
31 0 1428 310 2 MP stroke
0 128 1454 182 2 MP stroke
31 0 1439 182 2 MP stroke
31 0 1439 310 2 MP stroke
0 128 1465 182 2 MP stroke
31 0 1449 182 2 MP stroke
31 0 1449 310 2 MP stroke
0 128 1475 182 2 MP stroke
31 0 1459 182 2 MP stroke
31 0 1459 310 2 MP stroke
0 128 1485 182 2 MP stroke
31 0 1470 182 2 MP stroke
31 0 1470 310 2 MP stroke
0 128 1496 182 2 MP stroke
31 0 1480 182 2 MP stroke
31 0 1480 310 2 MP stroke
0 128 1506 182 2 MP stroke
30 0 1491 182 2 MP stroke
30 0 1491 310 2 MP stroke
0 129 1516 181 2 MP stroke
31 0 1501 181 2 MP stroke
31 0 1501 310 2 MP stroke
0 129 1527 181 2 MP stroke
31 0 1511 181 2 MP stroke
31 0 1511 310 2 MP stroke
0 129 1537 181 2 MP stroke
30 0 1522 181 2 MP stroke
30 0 1522 310 2 MP stroke
0 129 1547 181 2 MP stroke
31 0 1532 181 2 MP stroke
31 0 1532 310 2 MP stroke
0 129 1558 181 2 MP stroke
31 0 1542 181 2 MP stroke
31 0 1542 310 2 MP stroke
0 129 1568 181 2 MP stroke
31 0 1553 181 2 MP stroke
31 0 1553 310 2 MP stroke
0 129 1578 181 2 MP stroke
31 0 1563 181 2 MP stroke
31 0 1563 310 2 MP stroke
0 129 1589 181 2 MP stroke
31 0 1573 181 2 MP stroke
31 0 1573 310 2 MP stroke
0 129 1599 181 2 MP stroke
31 0 1584 181 2 MP stroke
31 0 1584 310 2 MP stroke
0 129 1610 181 2 MP stroke
31 0 1594 181 2 MP stroke
31 0 1594 310 2 MP stroke
0 128 1620 181 2 MP stroke
31 0 1604 181 2 MP stroke
31 0 1604 309 2 MP stroke
0 128 1630 181 2 MP stroke
31 0 1615 181 2 MP stroke
31 0 1615 309 2 MP stroke
0 128 1641 181 2 MP stroke
31 0 1625 181 2 MP stroke
31 0 1625 309 2 MP stroke
0 128 1651 181 2 MP stroke
30 0 1636 181 2 MP stroke
30 0 1636 309 2 MP stroke
0 128 1661 181 2 MP stroke
31 0 1646 181 2 MP stroke
31 0 1646 309 2 MP stroke
0 128 1672 181 2 MP stroke
31 0 1656 181 2 MP stroke
31 0 1656 309 2 MP stroke
0 129 1682 180 2 MP stroke
30 0 1667 180 2 MP stroke
30 0 1667 309 2 MP stroke
0 129 1692 180 2 MP stroke
31 0 1677 180 2 MP stroke
31 0 1677 309 2 MP stroke
0 129 1703 180 2 MP stroke
31 0 1687 180 2 MP stroke
31 0 1687 309 2 MP stroke
0 129 1713 180 2 MP stroke
31 0 1698 180 2 MP stroke
31 0 1698 309 2 MP stroke
0 129 1723 180 2 MP stroke
31 0 1708 180 2 MP stroke
31 0 1708 309 2 MP stroke
0 129 1734 180 2 MP stroke
31 0 1718 180 2 MP stroke
31 0 1718 309 2 MP stroke
0 129 1744 180 2 MP stroke
31 0 1729 180 2 MP stroke
31 0 1729 309 2 MP stroke
0 129 1755 180 2 MP stroke
31 0 1739 180 2 MP stroke
31 0 1739 309 2 MP stroke
0 129 1765 180 2 MP stroke
31 0 1749 180 2 MP stroke
31 0 1749 309 2 MP stroke
0 129 1775 180 2 MP stroke
31 0 1760 180 2 MP stroke
31 0 1760 309 2 MP stroke
0 128 1786 180 2 MP stroke
31 0 1770 180 2 MP stroke
31 0 1770 308 2 MP stroke
0 129 1796 179 2 MP stroke
31 0 1780 179 2 MP stroke
31 0 1780 308 2 MP stroke
0 129 1806 179 2 MP stroke
31 0 1791 179 2 MP stroke
31 0 1791 308 2 MP stroke
0 129 1817 179 2 MP stroke
31 0 1801 179 2 MP stroke
31 0 1801 308 2 MP stroke
0 129 1827 179 2 MP stroke
30 0 1812 179 2 MP stroke
30 0 1812 308 2 MP stroke
0 129 1837 179 2 MP stroke
31 0 1822 179 2 MP stroke
31 0 1822 308 2 MP stroke
0 128 1848 179 2 MP stroke
31 0 1832 179 2 MP stroke
31 0 1832 307 2 MP stroke
0 128 1858 179 2 MP stroke
31 0 1843 179 2 MP stroke
31 0 1843 307 2 MP stroke
10 0 11 0 10 0 10 0 11 -1 10 0 10 0 11 0 
10 0 10 0 11 0 10 -1 11 0 10 0 10 0 11 0 
10 0 10 0 11 0 10 0 10 0 11 0 10 0 10 0 
11 0 10 0 11 0 10 0 10 -1 11 0 10 0 10 0 
11 0 10 0 10 0 11 0 10 0 10 0 11 0 10 0 
11 0 10 0 10 0 11 0 10 0 10 -1 11 0 10 0 
10 0 11 0 10 0 10 0 11 0 10 0 11 -1 10 0 
10 -1 11 0 10 0 10 0 11 -1 10 -2 10 0 11 -1 
10 -1 10 -1 11 -1 10 -1 11 -1 10 -1 10 -1 11 -2 
10 -2 10 -2 11 -3 10 -2 10 -2 11 -3 10 -2 10 -5 
11 -2 10 -4 11 -3 10 -2 10 -3 11 -3 10 -4 10 -5 
11 -2 10 -4 10 -6 11 -5 10 -8 10 -6 11 -4 10 -11 
11 -6 10 -7 10 -10 11 -9 10 -10 10 -10 11 -15 10 -10 
10 -17 11 -15 10 -13 10 -19 11 -17 10 -19 11 -15 10 -15 
10 -17 11 -18 10 -18 10 -20 11 -16 10 -20 10 -19 11 -23 
10 -18 10 -18 11 -25 10 -23 11 -22 10 -21 10 -26 11 -24 
10 -28 10 -27 11 -27 10 -29 10 -28 11 -32 10 -30 10 -34 
11 -33 10 -33 11 -34 10 -36 10 -36 11 -35 10 -36 10 -35 
11 -34 10 -34 10 -35 11 -34 10 -37 315 1577 150 MP stroke
gr

c10
0 sg
 135   77 mt 
(e-descending greedy algorithm with e\(t\) = e) s
%%IncludeResource: font Helvetica
/Helvetica /WindowsLatin1Encoding 66.6667 FMSR

1761  118 mt 
(0) s
%%IncludeResource: font Helvetica
/Helvetica /WindowsLatin1Encoding 83.3333 FMSR

1798   77 mt 
( log\(t\)/t) s
 809 1781 mt 
(Rounds of play) s
  80 1240 mt  -90 rotate
(Accumulated regret) s
90 rotate
 284 1615 mt 
( ) s
1859  213 mt 
( ) s
1 sg
0 491 631 0 0 -491 1429 1507 4 MP
PP
-631 0 0 491 631 0 0 -491 1429 1507 5 MP stroke
2.77778 w
DO
SO
4.16667 w
0 sg
1429 1016 mt 2060 1016 L
1429 1507 mt 2060 1507 L
2060 1507 mt 2060 1016 L
1429 1507 mt 1429 1016 L
1429 1507 mt 2060 1507 L
1429 1507 mt 1429 1016 L
1429 1016 mt 2060 1016 L
1429 1507 mt 2060 1507 L
2060 1507 mt 2060 1016 L
1429 1507 mt 1429 1016 L
1754 1119 mt 
(e) s
%%IncludeResource: font Helvetica
/Helvetica /WindowsLatin1Encoding 66.6667 FMSR

1800 1160 mt 
(0) s
%%IncludeResource: font Helvetica
/Helvetica /WindowsLatin1Encoding 83.3333 FMSR

1837 1119 mt 
( = 20) s
gs 1429 1016 632 492 rc
c8
250 0 1478 1107 2 MP stroke
gr

c8
0 sg
1754 1273 mt 
(e) s
%%IncludeResource: font Helvetica
/Helvetica /WindowsLatin1Encoding 66.6667 FMSR

1800 1314 mt 
(0) s
%%IncludeResource: font Helvetica
/Helvetica /WindowsLatin1Encoding 83.3333 FMSR

1837 1273 mt 
( = 15) s
gs 1429 1016 632 492 rc
c9
250 0 1478 1261 2 MP stroke
gr

c9
0 sg
1754 1427 mt 
(e) s
%%IncludeResource: font Helvetica
/Helvetica /WindowsLatin1Encoding 66.6667 FMSR

1800 1468 mt 
(0) s
%%IncludeResource: font Helvetica
/Helvetica /WindowsLatin1Encoding 83.3333 FMSR

1837 1427 mt 
( = 5) s
gs 1429 1016 632 492 rc
c10
250 0 1478 1415 2 MP stroke
gr

c10

end %%Color Dict

eplot
%%EndObject

epage
end

showpage

%%Trailer
%%EOF
