%!PS-Adobe-3.0 EPSF-3.0
%%Creator: MATLAB, The MathWorks, Inc. Version 7.12.0.635 (R2011a). Operating System: Microsoft Windows 7.
%%Title: .\knownVar.eps
%%CreationDate: 07/28/2014  16:01:54
%%DocumentNeededFonts: Helvetica
%%DocumentProcessColors: Cyan Magenta Yellow Black
%%LanguageLevel: 2
%%Pages: 1
%%BoundingBox:    18    17   252   237
%%EndComments

%%BeginProlog
% MathWorks dictionary
/MathWorks 160 dict begin
% definition operators
/bdef {bind def} bind def
/ldef {load def} bind def
/xdef {exch def} bdef
/xstore {exch store} bdef
% operator abbreviations
/c  /clip ldef
/cc /concat ldef
/cp /closepath ldef
/gr /grestore ldef
/gs /gsave ldef
/mt /moveto ldef
/np /newpath ldef
/cm /currentmatrix ldef
/sm /setmatrix ldef
/rm /rmoveto ldef
/rl /rlineto ldef
/s {show newpath} bdef
/sc {setcmykcolor} bdef
/sr /setrgbcolor ldef
/sg /setgray ldef
/w /setlinewidth ldef
/j /setlinejoin ldef
/cap /setlinecap ldef
/rc {rectclip} bdef
/rf {rectfill} bdef
% page state control
/pgsv () def
/bpage {/pgsv save def} bdef
/epage {pgsv restore} bdef
/bplot /gsave ldef
/eplot {stroke grestore} bdef
% orientation switch
/portraitMode 0 def /landscapeMode 1 def /rotateMode 2 def
% coordinate system mappings
/dpi2point 0 def
% font control
/FontSize 0 def
/FMS {/FontSize xstore findfont [FontSize 0 0 FontSize neg 0 0]
  makefont setfont} bdef
/ISOLatin1Encoding where {pop /WindowsLatin1Encoding 256 array bdef
ISOLatin1Encoding WindowsLatin1Encoding copy pop
/.notdef/.notdef/quotesinglbase/florin/quotedblbase/ellipsis/dagger
/daggerdbl/circumflex/perthousand/Scaron/guilsinglleft/OE/.notdef/.notdef
/.notdef/.notdef/quoteleft/quoteright/quotedblleft/quotedblright/bullet
/endash/emdash/tilde/trademark/scaron/guilsinglright/oe/.notdef/.notdef
/Ydieresis WindowsLatin1Encoding 128 32 getinterval astore pop}
{/WindowsLatin1Encoding StandardEncoding bdef} ifelse
/reencode {exch dup where {pop load} {pop StandardEncoding} ifelse
  exch dup 3 1 roll findfont dup length dict begin
  { 1 index /FID ne {def}{pop pop} ifelse } forall
  /Encoding exch def currentdict end definefont pop} bdef
/isroman {findfont /CharStrings get /Agrave known} bdef
/FMSR {3 1 roll 1 index dup isroman {reencode} {pop pop} ifelse
  exch FMS} bdef
/csm {1 dpi2point div -1 dpi2point div scale neg translate
 dup landscapeMode eq {pop -90 rotate}
  {rotateMode eq {90 rotate} if} ifelse} bdef
% line types: solid, dotted, dashed, dotdash
/SO { [] 0 setdash } bdef
/DO { [.5 dpi2point mul 4 dpi2point mul] 0 setdash } bdef
/DA { [6 dpi2point mul] 0 setdash } bdef
/DD { [.5 dpi2point mul 4 dpi2point mul 6 dpi2point mul 4
  dpi2point mul] 0 setdash } bdef
% macros for lines and objects
/L {lineto stroke} bdef
/MP {3 1 roll moveto 1 sub {rlineto} repeat} bdef
/AP {{rlineto} repeat} bdef
/PDlw -1 def
/W {/PDlw currentlinewidth def setlinewidth} def
/PP {closepath eofill} bdef
/DP {closepath stroke} bdef
/MR {4 -2 roll moveto dup  0 exch rlineto exch 0 rlineto
  neg 0 exch rlineto closepath} bdef
/FR {MR stroke} bdef
/PR {MR fill} bdef
/L1i {{currentfile picstr readhexstring pop} image} bdef
/tMatrix matrix def
/MakeOval {newpath tMatrix currentmatrix pop translate scale
0 0 1 0 360 arc tMatrix setmatrix} bdef
/FO {MakeOval stroke} bdef
/PO {MakeOval fill} bdef
/PD {currentlinewidth 2 div 0 360 arc fill
   PDlw -1 eq not {PDlw w /PDlw -1 def} if} def
/FA {newpath tMatrix currentmatrix pop translate scale
  0 0 1 5 -2 roll arc tMatrix setmatrix stroke} bdef
/PA {newpath tMatrix currentmatrix pop	translate 0 0 moveto scale
  0 0 1 5 -2 roll arc closepath tMatrix setmatrix fill} bdef
/FAn {newpath tMatrix currentmatrix pop translate scale
  0 0 1 5 -2 roll arcn tMatrix setmatrix stroke} bdef
/PAn {newpath tMatrix currentmatrix pop translate 0 0 moveto scale
  0 0 1 5 -2 roll arcn closepath tMatrix setmatrix fill} bdef
/vradius 0 def /hradius 0 def /lry 0 def
/lrx 0 def /uly 0 def /ulx 0 def /rad 0 def
/MRR {/vradius xdef /hradius xdef /lry xdef /lrx xdef /uly xdef
  /ulx xdef newpath tMatrix currentmatrix pop ulx hradius add uly
  vradius add translate hradius vradius scale 0 0 1 180 270 arc 
  tMatrix setmatrix lrx hradius sub uly vradius add translate
  hradius vradius scale 0 0 1 270 360 arc tMatrix setmatrix
  lrx hradius sub lry vradius sub translate hradius vradius scale
  0 0 1 0 90 arc tMatrix setmatrix ulx hradius add lry vradius sub
  translate hradius vradius scale 0 0 1 90 180 arc tMatrix setmatrix
  closepath} bdef
/FRR {MRR stroke } bdef
/PRR {MRR fill } bdef
/MlrRR {/lry xdef /lrx xdef /uly xdef /ulx xdef /rad lry uly sub 2 div def
  newpath tMatrix currentmatrix pop ulx rad add uly rad add translate
  rad rad scale 0 0 1 90 270 arc tMatrix setmatrix lrx rad sub lry rad
  sub translate rad rad scale 0 0 1 270 90 arc tMatrix setmatrix
  closepath} bdef
/FlrRR {MlrRR stroke } bdef
/PlrRR {MlrRR fill } bdef
/MtbRR {/lry xdef /lrx xdef /uly xdef /ulx xdef /rad lrx ulx sub 2 div def
  newpath tMatrix currentmatrix pop ulx rad add uly rad add translate
  rad rad scale 0 0 1 180 360 arc tMatrix setmatrix lrx rad sub lry rad
  sub translate rad rad scale 0 0 1 0 180 arc tMatrix setmatrix
  closepath} bdef
/FtbRR {MtbRR stroke } bdef
/PtbRR {MtbRR fill } bdef
/stri 6 array def /dtri 6 array def
/smat 6 array def /dmat 6 array def
/tmat1 6 array def /tmat2 6 array def /dif 3 array def
/asub {/ind2 exch def /ind1 exch def dup dup
  ind1 get exch ind2 get sub exch } bdef
/tri_to_matrix {
  2 0 asub 3 1 asub 4 0 asub 5 1 asub
  dup 0 get exch 1 get 7 -1 roll astore } bdef
/compute_transform {
  dmat dtri tri_to_matrix tmat1 invertmatrix 
  smat stri tri_to_matrix tmat2 concatmatrix } bdef
/ds {stri astore pop} bdef
/dt {dtri astore pop} bdef
/db {2 copy /cols xdef /rows xdef mul dup 3 mul string
  currentfile 
  3 index 0 eq {/ASCIIHexDecode filter}
  {/ASCII85Decode filter 3 index 2 eq {/RunLengthDecode filter} if }
  ifelse exch readstring pop
  dup 0 3 index getinterval /rbmap xdef
  dup 2 index dup getinterval /gbmap xdef
  1 index dup 2 mul exch getinterval /bbmap xdef pop pop}bdef
/it {gs np dtri aload pop moveto lineto lineto cp c
  cols rows 8 compute_transform 
  rbmap gbmap bbmap true 3 colorimage gr}bdef
/il {newpath moveto lineto stroke}bdef
currentdict end def
%%EndProlog

%%BeginSetup
MathWorks begin

0 cap

end
%%EndSetup

%%Page: 1 1
%%BeginPageSetup
%%PageBoundingBox:    18    17   252   237
MathWorks begin
bpage
%%EndPageSetup

%%BeginObject: obj1
bplot

/dpi2point 8.33333 def
portraitMode 0150 1950 csm

    0   -32  1954  1833 rc
86 dict begin %Colortable dictionary
/c0 { 0.000000 0.000000 0.000000 sr} bdef
/c1 { 1.000000 1.000000 1.000000 sr} bdef
/c2 { 0.900000 0.000000 0.000000 sr} bdef
/c3 { 0.000000 0.820000 0.000000 sr} bdef
/c4 { 0.000000 0.000000 0.800000 sr} bdef
/c5 { 0.910000 0.820000 0.320000 sr} bdef
/c6 { 1.000000 0.260000 0.820000 sr} bdef
/c7 { 0.000000 0.820000 0.820000 sr} bdef
c0
1 j
1 sg
   0    0 2072 1802 rf
4.16667 w
0 1445 1574 0 0 -1445 300 1580 4 MP
PP
-1574 0 0 1445 1574 0 0 -1445 300 1580 5 MP stroke
2.77778 w
DO
SO
4.16667 w
0 sg
 300  135 mt 1874  135 L
 300 1580 mt 1874 1580 L
1874 1580 mt 1874  135 L
 300 1580 mt  300  135 L
 300 1580 mt 1874 1580 L
 300 1580 mt  300  135 L
 300 1580 mt  300 1564 L
 300  135 mt  300  150 L
%%IncludeResource: font Helvetica
/Helvetica /WindowsLatin1Encoding 83.3333 FMSR

 277 1681 mt 
(0) s
 614 1580 mt  614 1564 L
 614  135 mt  614  150 L
 591 1681 mt 
(5) s
 929 1580 mt  929 1564 L
 929  135 mt  929  150 L
 883 1681 mt 
(10) s
1244 1580 mt 1244 1564 L
1244  135 mt 1244  150 L
1198 1681 mt 
(15) s
1559 1580 mt 1559 1564 L
1559  135 mt 1559  150 L
1513 1681 mt 
(20) s
1874 1580 mt 1874 1564 L
1874  135 mt 1874  150 L
1828 1681 mt 
(25) s
 300 1580 mt  315 1580 L
1874 1580 mt 1858 1580 L
 230 1610 mt 
(0) s
 300 1291 mt  315 1291 L
1874 1291 mt 1858 1291 L
 137 1321 mt 
(100) s
 300 1002 mt  315 1002 L
1874 1002 mt 1858 1002 L
 137 1032 mt 
(200) s
 300  713 mt  315  713 L
1874  713 mt 1858  713 L
 137  743 mt 
(300) s
 300  424 mt  315  424 L
1874  424 mt 1858  424 L
 137  454 mt 
(400) s
 300  135 mt  315  135 L
1874  135 mt 1858  135 L
 137  165 mt 
(500) s
 300  135 mt 1874  135 L
 300 1580 mt 1874 1580 L
1874 1580 mt 1874  135 L
 300 1580 mt  300  135 L
gs 300 135 1575 1446 rc
/c8 { 0.000000 0.000000 1.000000 sr} bdef
c8
0 27 362 1007 2 MP stroke
24 0 350 1007 2 MP stroke
24 0 350 1034 2 MP stroke
0 102 614 1065 2 MP stroke
24 0 602 1065 2 MP stroke
24 0 602 1167 2 MP stroke
0 156 929 1102 2 MP stroke
24 0 917 1102 2 MP stroke
24 0 917 1258 2 MP stroke
0 469 1559 738 2 MP stroke
24 0 1547 738 2 MP stroke
24 0 1547 1207 2 MP stroke
630 -207 315 64 252 96 362 1020 4 MP stroke
/c9 { 1.000000 0.000000 0.000000 sr} bdef
c9
0 6 362 1328 2 MP stroke
24 0 350 1328 2 MP stroke
24 0 350 1334 2 MP stroke
0 63 614 919 2 MP stroke
24 0 602 919 2 MP stroke
24 0 602 982 2 MP stroke
0 127 929 741 2 MP stroke
24 0 917 741 2 MP stroke
24 0 917 868 2 MP stroke
0 271 1559 296 2 MP stroke
24 0 1547 296 2 MP stroke
24 0 1547 567 2 MP stroke
630 -372 315 -147 252 -380 362 1331 4 MP stroke
/c10 { 0.000000 1.000000 0.000000 sr} bdef
c10
0 77 362 588 2 MP stroke
24 0 350 588 2 MP stroke
24 0 350 665 2 MP stroke
0 96 614 456 2 MP stroke
24 0 602 456 2 MP stroke
24 0 602 552 2 MP stroke
0 174 929 320 2 MP stroke
24 0 917 320 2 MP stroke
24 0 917 494 2 MP stroke
0 325 1559 213 2 MP stroke
24 0 1547 213 2 MP stroke
24 0 1547 538 2 MP stroke
630 -32 315 -97 252 -123 362 627 4 MP stroke
gr

c10
0 sg
 845 1781 mt 
(Variance\(dB\)) s
  80 1382 mt  -90 rotate
(Accumulated regret at t=300) s
90 rotate
 288 1611 mt 
( ) s
1863  165 mt 
( ) s
1 sg
0 379 1271 0 0 -379 87 380 4 MP
PP
-1271 0 0 379 1271 0 0 -379 87 380 5 MP stroke
2.77778 w
DO
SO
4.16667 w
0 sg
  87    1 mt 1358    1 L
  87  380 mt 1358  380 L
1358  380 mt 1358    1 L
  87  380 mt   87    1 L
  87  380 mt 1358  380 L
  87  380 mt   87    1 L
  87    1 mt 1358    1 L
  87  380 mt 1358  380 L
1358  380 mt 1358    1 L
  87  380 mt   87    1 L
 416  104 mt 
(Sequential superprocess) s
gs 87 1 1272 380 rc
c8
253 0 137 73 2 MP stroke
gr

c8
0 sg
 416  221 mt 
(TLP) s
gs 87 1 1272 380 rc
c9
253 0 137 190 2 MP stroke
gr

c9
0 sg
 416  338 mt 
(e-descending greedy) s
gs 87 1 1272 380 rc
c10
253 0 137 307 2 MP stroke
gr

c10

end %%Color Dict

eplot
%%EndObject

epage
end

showpage

%%Trailer
%%EOF
