%!PS-Adobe-3.0 EPSF-3.0
%%Creator: MATLAB, The MathWorks, Inc. Version 8.3.0.532 (R2014a). Operating System: Microsoft Windows 8.1 Pro.
%%Title: .\VsA.eps
%%CreationDate: 09/17/2014  19:33:53
%%DocumentNeededFonts: Helvetica
%%DocumentProcessColors: Cyan Magenta Yellow Black
%%LanguageLevel: 2
%%Pages: 1
%%BoundingBox:    18    17   249   228
%%EndComments

%%BeginProlog
% MathWorks dictionary
/MathWorks 160 dict begin
% definition operators
/bdef {bind def} bind def
/ldef {load def} bind def
/xdef {exch def} bdef
/xstore {exch store} bdef
% operator abbreviations
/c  /clip ldef
/cc /concat ldef
/cp /closepath ldef
/gr /grestore ldef
/gs /gsave ldef
/mt /moveto ldef
/np /newpath ldef
/cm /currentmatrix ldef
/sm /setmatrix ldef
/rm /rmoveto ldef
/rl /rlineto ldef
/s {show newpath} bdef
/sc {setcmykcolor} bdef
/sr /setrgbcolor ldef
/sg /setgray ldef
/w /setlinewidth ldef
/j /setlinejoin ldef
/cap /setlinecap ldef
/rc {rectclip} bdef
/rf {rectfill} bdef
% page state control
/pgsv () def
/bpage {/pgsv save def} bdef
/epage {pgsv restore} bdef
/bplot /gsave ldef
/eplot {stroke grestore} bdef
% orientation switch
/portraitMode 0 def /landscapeMode 1 def /rotateMode 2 def
% coordinate system mappings
/dpi2point 0 def
% font control
/FontSize 0 def
/FMS {/FontSize xstore findfont [FontSize 0 0 FontSize neg 0 0]
  makefont setfont} bdef
/ISOLatin1Encoding where {pop /WindowsLatin1Encoding 256 array bdef
ISOLatin1Encoding WindowsLatin1Encoding copy pop
/.notdef/.notdef/quotesinglbase/florin/quotedblbase/ellipsis/dagger
/daggerdbl/circumflex/perthousand/Scaron/guilsinglleft/OE/.notdef/.notdef
/.notdef/.notdef/quoteleft/quoteright/quotedblleft/quotedblright/bullet
/endash/emdash/tilde/trademark/scaron/guilsinglright/oe/.notdef/.notdef
/Ydieresis WindowsLatin1Encoding 128 32 getinterval astore pop}
{/WindowsLatin1Encoding StandardEncoding bdef} ifelse
/reencode {exch dup where {pop load} {pop StandardEncoding} ifelse
  exch dup 3 1 roll findfont dup length dict begin
  { 1 index /FID ne {def}{pop pop} ifelse } forall
  /Encoding exch def currentdict end definefont pop} bdef
/isroman {findfont /CharStrings get /Agrave known} bdef
/FMSR {3 1 roll 1 index dup isroman {reencode} {pop pop} ifelse
  exch FMS} bdef
/csm {1 dpi2point div -1 dpi2point div scale neg translate
 dup landscapeMode eq {pop -90 rotate}
  {rotateMode eq {90 rotate} if} ifelse} bdef
% line types: solid, dotted, dashed, dotdash
/SO { [] 0 setdash } bdef
/DO { [.5 dpi2point mul 4 dpi2point mul] 0 setdash } bdef
/DA { [6 dpi2point mul] 0 setdash } bdef
/DD { [.5 dpi2point mul 4 dpi2point mul 6 dpi2point mul 4
  dpi2point mul] 0 setdash } bdef
% macros for lines and objects
/L {lineto stroke} bdef
/MP {3 1 roll moveto 1 sub {rlineto} repeat} bdef
/AP {{rlineto} repeat} bdef
/PDlw -1 def
/W {/PDlw currentlinewidth def setlinewidth} def
/PP {closepath eofill} bdef
/DP {closepath stroke} bdef
/MR {4 -2 roll moveto dup  0 exch rlineto exch 0 rlineto
  neg 0 exch rlineto closepath} bdef
/FR {MR stroke} bdef
/PR {MR fill} bdef
/L1i {{currentfile picstr readhexstring pop} image} bdef
/tMatrix matrix def
/MakeOval {newpath tMatrix currentmatrix pop translate scale
0 0 1 0 360 arc tMatrix setmatrix} bdef
/FO {MakeOval stroke} bdef
/PO {MakeOval fill} bdef
/PD {currentlinewidth 2 div 0 360 arc fill
   PDlw -1 eq not {PDlw w /PDlw -1 def} if} def
/FA {newpath tMatrix currentmatrix pop translate scale
  0 0 1 5 -2 roll arc tMatrix setmatrix stroke} bdef
/PA {newpath tMatrix currentmatrix pop	translate 0 0 moveto scale
  0 0 1 5 -2 roll arc closepath tMatrix setmatrix fill} bdef
/FAn {newpath tMatrix currentmatrix pop translate scale
  0 0 1 5 -2 roll arcn tMatrix setmatrix stroke} bdef
/PAn {newpath tMatrix currentmatrix pop translate 0 0 moveto scale
  0 0 1 5 -2 roll arcn closepath tMatrix setmatrix fill} bdef
/vradius 0 def /hradius 0 def /lry 0 def
/lrx 0 def /uly 0 def /ulx 0 def /rad 0 def
/MRR {/vradius xdef /hradius xdef /lry xdef /lrx xdef /uly xdef
  /ulx xdef newpath tMatrix currentmatrix pop ulx hradius add uly
  vradius add translate hradius vradius scale 0 0 1 180 270 arc 
  tMatrix setmatrix lrx hradius sub uly vradius add translate
  hradius vradius scale 0 0 1 270 360 arc tMatrix setmatrix
  lrx hradius sub lry vradius sub translate hradius vradius scale
  0 0 1 0 90 arc tMatrix setmatrix ulx hradius add lry vradius sub
  translate hradius vradius scale 0 0 1 90 180 arc tMatrix setmatrix
  closepath} bdef
/FRR {MRR stroke } bdef
/PRR {MRR fill } bdef
/MlrRR {/lry xdef /lrx xdef /uly xdef /ulx xdef /rad lry uly sub 2 div def
  newpath tMatrix currentmatrix pop ulx rad add uly rad add translate
  rad rad scale 0 0 1 90 270 arc tMatrix setmatrix lrx rad sub lry rad
  sub translate rad rad scale 0 0 1 270 90 arc tMatrix setmatrix
  closepath} bdef
/FlrRR {MlrRR stroke } bdef
/PlrRR {MlrRR fill } bdef
/MtbRR {/lry xdef /lrx xdef /uly xdef /ulx xdef /rad lrx ulx sub 2 div def
  newpath tMatrix currentmatrix pop ulx rad add uly rad add translate
  rad rad scale 0 0 1 180 360 arc tMatrix setmatrix lrx rad sub lry rad
  sub translate rad rad scale 0 0 1 0 180 arc tMatrix setmatrix
  closepath} bdef
/FtbRR {MtbRR stroke } bdef
/PtbRR {MtbRR fill } bdef
/stri 6 array def /dtri 6 array def
/smat 6 array def /dmat 6 array def
/tmat1 6 array def /tmat2 6 array def /dif 3 array def
/asub {/ind2 exch def /ind1 exch def dup dup
  ind1 get exch ind2 get sub exch } bdef
/tri_to_matrix {
  2 0 asub 3 1 asub 4 0 asub 5 1 asub
  dup 0 get exch 1 get 7 -1 roll astore } bdef
/compute_transform {
  dmat dtri tri_to_matrix tmat1 invertmatrix 
  smat stri tri_to_matrix tmat2 concatmatrix } bdef
/ds {stri astore pop} bdef
/dt {dtri astore pop} bdef
/db {2 copy /cols xdef /rows xdef mul dup 3 mul string
  currentfile 
  3 index 0 eq {/ASCIIHexDecode filter}
  {/ASCII85Decode filter 3 index 2 eq {/RunLengthDecode filter} if }
  ifelse exch readstring pop
  dup 0 3 index getinterval /rbmap xdef
  dup 2 index dup getinterval /gbmap xdef
  1 index dup 2 mul exch getinterval /bbmap xdef pop pop}bdef
/it {gs np dtri aload pop moveto lineto lineto cp c
  cols rows 8 compute_transform 
  rbmap gbmap bbmap true 3 colorimage gr}bdef
/il {newpath moveto lineto stroke}bdef
currentdict end def
%%EndProlog

%%BeginSetup
MathWorks begin

0 cap

end
%%EndSetup

%%Page: 1 1
%%BeginPageSetup
%%PageBoundingBox:    18    17   249   228
MathWorks begin
bpage
%%EndPageSetup

%%BeginObject: obj1
bplot

/dpi2point 8.33333 def
portraitMode 0150 1950 csm

    0    46  1929  1755 rc
86 dict begin %Colortable dictionary
/c0 { 0.000000 0.000000 0.000000 sr} bdef
/c1 { 1.000000 1.000000 1.000000 sr} bdef
/c2 { 0.900000 0.000000 0.000000 sr} bdef
/c3 { 0.000000 0.820000 0.000000 sr} bdef
/c4 { 0.000000 0.000000 0.800000 sr} bdef
/c5 { 0.910000 0.820000 0.320000 sr} bdef
/c6 { 1.000000 0.260000 0.820000 sr} bdef
/c7 { 0.000000 0.820000 0.820000 sr} bdef
c0
1 j
1 sg
   0    0 2072 1802 rf
4.16667 w
0 1445 1574 0 0 -1445 300 1580 4 MP
PP
-1574 0 0 1445 1574 0 0 -1445 300 1580 5 MP stroke
2.77778 w
DO
0 sg
 300 1580 mt  300  135 L
 300  135 mt  300  135 L
 737 1580 mt  737  135 L
 737  135 mt  737  135 L
1174 1580 mt 1174  135 L
1174  135 mt 1174  135 L
1611 1580 mt 1611  135 L
1611  135 mt 1611  135 L
 300 1580 mt 1874 1580 L
1874 1580 mt 1874 1580 L
 300 1291 mt 1874 1291 L
1874 1291 mt 1874 1291 L
 300 1002 mt 1874 1002 L
1874 1002 mt 1874 1002 L
 300  713 mt 1874  713 L
1874  713 mt 1874  713 L
 300  424 mt 1874  424 L
1874  424 mt 1874  424 L
 300  135 mt 1874  135 L
1874  135 mt 1874  135 L
SO
4.16667 w
 300  135 mt 1874  135 L
 300 1580 mt 1874 1580 L
1874 1580 mt 1874  135 L
 300 1580 mt  300  135 L
 300 1580 mt 1874 1580 L
 300 1580 mt  300  135 L
 300 1580 mt  300 1564 L
 300  135 mt  300  150 L
%%IncludeResource: font Helvetica
/Helvetica /WindowsLatin1Encoding 83.3333 FMSR

 277 1681 mt 
(0) s
 737 1580 mt  737 1564 L
 737  135 mt  737  150 L
 714 1681 mt 
(5) s
1174 1580 mt 1174 1564 L
1174  135 mt 1174  150 L
1128 1681 mt 
(10) s
1611 1580 mt 1611 1564 L
1611  135 mt 1611  150 L
1565 1681 mt 
(15) s
 300 1580 mt  315 1580 L
1874 1580 mt 1858 1580 L
 230 1610 mt 
(0) s
 300 1291 mt  315 1291 L
1874 1291 mt 1858 1291 L
 137 1321 mt 
(100) s
 300 1002 mt  315 1002 L
1874 1002 mt 1858 1002 L
 137 1032 mt 
(200) s
 300  713 mt  315  713 L
1874  713 mt 1858  713 L
 137  743 mt 
(300) s
 300  424 mt  315  424 L
1874  424 mt 1858  424 L
 137  454 mt 
(400) s
 300  135 mt  315  135 L
1874  135 mt 1858  135 L
 137  165 mt 
(500) s
 300  135 mt 1874  135 L
 300 1580 mt 1874 1580 L
1874 1580 mt 1874  135 L
 300 1580 mt  300  135 L
gs 300 135 1575 1446 rc
8.33333 w
437 -239 437 -305 175 -169 562 1011 4 MP stroke
gr

8.33333 w
  25   25  562 1011 FO
  25   25  737  842 FO
  25   25 1174  537 FO
  25   25 1611  298 FO
gs 300 135 1575 1446 rc
/c8 { 0.000000 0.000000 1.000000 sr} bdef
c8
437 -49 437 -110 175 -141 562 1233 4 MP stroke
gr

c8
 545 1216 mt  579 1250 L
 579 1216 mt  545 1250 L
 720 1075 mt  754 1109 L
 754 1075 mt  720 1109 L
1157  965 mt 1191  999 L
1191  965 mt 1157  999 L
1594  916 mt 1628  950 L
1628  916 mt 1594  950 L
gs 300 135 1575 1446 rc
/c9 { 0.000000 1.000000 0.000000 sr} bdef
c9
437 77 437 -203 175 -136 562 796 4 MP stroke
gr

c9
0 j
-29 50 -29 -50 58 0 533 813 4 MP
DP
-29 50 -29 -50 58 0 708 677 4 MP
DP
-29 50 -29 -50 58 0 1145 474 4 MP
DP
-29 50 -29 -50 58 0 1582 551 4 MP
DP
gs 300 135 1575 1446 rc
/c10 { 1.000000 0.000000 0.000000 sr} bdef
c10
437 -33 437 -97 175 -112 562 1217 4 MP stroke
gr

c10
0 sg
 828 1781 mt 
(Num. of offers) s
  80 1405 mt  -90 rotate
(Accumulated regret at t=1500) s
90 rotate
 281 1619 mt 
( ) s
1856  173 mt 
( ) s
4.16667 w
1 sg
0 445 775 0 0 -445 964 1539 4 MP
PP
-775 0 0 445 775 0 0 -445 964 1539 5 MP stroke
2.77778 w
DO
SO
4.16667 w
0 sg
 964 1094 mt 1739 1094 L
 964 1539 mt 1739 1539 L
1739 1539 mt 1739 1094 L
 964 1539 mt  964 1094 L
 964 1539 mt 1739 1539 L
 964 1539 mt  964 1094 L
 964 1094 mt 1739 1094 L
 964 1539 mt 1739 1539 L
1739 1539 mt 1739 1094 L
 964 1539 mt  964 1094 L
%%IncludeResource: font Helvetica
/Helvetica /WindowsLatin1Encoding 66.6667 FMSR

1289 1185 mt 
(Seq. FA) s
gs 964 1094 776 446 rc
8.33333 w
c9
250 0 1014 1160 2 MP stroke
gs 1088 1109 103 103 rc
-29 50 -29 -50 58 0 1110 1177 4 MP
DP
gr

gr

8.33333 w
c9
0 sg
%%IncludeResource: font Symbol
/Symbol /WindowsLatin1Encoding 66.6667 FMSR

1289 1289 mt 
(e) s
%%IncludeResource: font Helvetica
/Helvetica /WindowsLatin1Encoding 66.6667 FMSR

1318 1289 mt 
( greedy) s
gs 964 1094 776 446 rc
250 0 1014 1264 2 MP stroke
gs 1088 1213 103 103 rc
  25   25 1139 1264 FO
gr

gr

1289 1393 mt 
(TLP) s
gs 964 1094 776 446 rc
c8
250 0 1014 1368 2 MP stroke
gs 1088 1317 103 103 rc
1122 1351 mt 1156 1385 L
1156 1351 mt 1122 1385 L
gr

gr

c8
0 sg
1289 1497 mt 
(Seq. FA_UCB) s
gs 964 1094 776 446 rc
c10
250 0 1014 1472 2 MP stroke
4.16667 w
gr

4.16667 w
c10

end %%Color Dict

eplot
%%EndObject

epage
end

showpage

%%Trailer
%%EOF
