%!PS-Adobe-3.0 EPSF-3.0
%%Creator: MATLAB, The MathWorks, Inc. Version 8.3.0.532 (R2014a). Operating System: Microsoft Windows 8.1 Pro.
%%Title: .\VsKnownVar.eps
%%CreationDate: 09/18/2014  17:48:40
%%DocumentNeededFonts: Helvetica
%%DocumentProcessColors: Cyan Magenta Yellow Black
%%LanguageLevel: 2
%%Pages: 1
%%BoundingBox:    18    17   253   228
%%EndComments

%%BeginProlog
% MathWorks dictionary
/MathWorks 160 dict begin
% definition operators
/bdef {bind def} bind def
/ldef {load def} bind def
/xdef {exch def} bdef
/xstore {exch store} bdef
% operator abbreviations
/c  /clip ldef
/cc /concat ldef
/cp /closepath ldef
/gr /grestore ldef
/gs /gsave ldef
/mt /moveto ldef
/np /newpath ldef
/cm /currentmatrix ldef
/sm /setmatrix ldef
/rm /rmoveto ldef
/rl /rlineto ldef
/s {show newpath} bdef
/sc {setcmykcolor} bdef
/sr /setrgbcolor ldef
/sg /setgray ldef
/w /setlinewidth ldef
/j /setlinejoin ldef
/cap /setlinecap ldef
/rc {rectclip} bdef
/rf {rectfill} bdef
% page state control
/pgsv () def
/bpage {/pgsv save def} bdef
/epage {pgsv restore} bdef
/bplot /gsave ldef
/eplot {stroke grestore} bdef
% orientation switch
/portraitMode 0 def /landscapeMode 1 def /rotateMode 2 def
% coordinate system mappings
/dpi2point 0 def
% font control
/FontSize 0 def
/FMS {/FontSize xstore findfont [FontSize 0 0 FontSize neg 0 0]
  makefont setfont} bdef
/ISOLatin1Encoding where {pop /WindowsLatin1Encoding 256 array bdef
ISOLatin1Encoding WindowsLatin1Encoding copy pop
/.notdef/.notdef/quotesinglbase/florin/quotedblbase/ellipsis/dagger
/daggerdbl/circumflex/perthousand/Scaron/guilsinglleft/OE/.notdef/.notdef
/.notdef/.notdef/quoteleft/quoteright/quotedblleft/quotedblright/bullet
/endash/emdash/tilde/trademark/scaron/guilsinglright/oe/.notdef/.notdef
/Ydieresis WindowsLatin1Encoding 128 32 getinterval astore pop}
{/WindowsLatin1Encoding StandardEncoding bdef} ifelse
/reencode {exch dup where {pop load} {pop StandardEncoding} ifelse
  exch dup 3 1 roll findfont dup length dict begin
  { 1 index /FID ne {def}{pop pop} ifelse } forall
  /Encoding exch def currentdict end definefont pop} bdef
/isroman {findfont /CharStrings get /Agrave known} bdef
/FMSR {3 1 roll 1 index dup isroman {reencode} {pop pop} ifelse
  exch FMS} bdef
/csm {1 dpi2point div -1 dpi2point div scale neg translate
 dup landscapeMode eq {pop -90 rotate}
  {rotateMode eq {90 rotate} if} ifelse} bdef
% line types: solid, dotted, dashed, dotdash
/SO { [] 0 setdash } bdef
/DO { [.5 dpi2point mul 4 dpi2point mul] 0 setdash } bdef
/DA { [6 dpi2point mul] 0 setdash } bdef
/DD { [.5 dpi2point mul 4 dpi2point mul 6 dpi2point mul 4
  dpi2point mul] 0 setdash } bdef
% macros for lines and objects
/L {lineto stroke} bdef
/MP {3 1 roll moveto 1 sub {rlineto} repeat} bdef
/AP {{rlineto} repeat} bdef
/PDlw -1 def
/W {/PDlw currentlinewidth def setlinewidth} def
/PP {closepath eofill} bdef
/DP {closepath stroke} bdef
/MR {4 -2 roll moveto dup  0 exch rlineto exch 0 rlineto
  neg 0 exch rlineto closepath} bdef
/FR {MR stroke} bdef
/PR {MR fill} bdef
/L1i {{currentfile picstr readhexstring pop} image} bdef
/tMatrix matrix def
/MakeOval {newpath tMatrix currentmatrix pop translate scale
0 0 1 0 360 arc tMatrix setmatrix} bdef
/FO {MakeOval stroke} bdef
/PO {MakeOval fill} bdef
/PD {currentlinewidth 2 div 0 360 arc fill
   PDlw -1 eq not {PDlw w /PDlw -1 def} if} def
/FA {newpath tMatrix currentmatrix pop translate scale
  0 0 1 5 -2 roll arc tMatrix setmatrix stroke} bdef
/PA {newpath tMatrix currentmatrix pop	translate 0 0 moveto scale
  0 0 1 5 -2 roll arc closepath tMatrix setmatrix fill} bdef
/FAn {newpath tMatrix currentmatrix pop translate scale
  0 0 1 5 -2 roll arcn tMatrix setmatrix stroke} bdef
/PAn {newpath tMatrix currentmatrix pop translate 0 0 moveto scale
  0 0 1 5 -2 roll arcn closepath tMatrix setmatrix fill} bdef
/vradius 0 def /hradius 0 def /lry 0 def
/lrx 0 def /uly 0 def /ulx 0 def /rad 0 def
/MRR {/vradius xdef /hradius xdef /lry xdef /lrx xdef /uly xdef
  /ulx xdef newpath tMatrix currentmatrix pop ulx hradius add uly
  vradius add translate hradius vradius scale 0 0 1 180 270 arc 
  tMatrix setmatrix lrx hradius sub uly vradius add translate
  hradius vradius scale 0 0 1 270 360 arc tMatrix setmatrix
  lrx hradius sub lry vradius sub translate hradius vradius scale
  0 0 1 0 90 arc tMatrix setmatrix ulx hradius add lry vradius sub
  translate hradius vradius scale 0 0 1 90 180 arc tMatrix setmatrix
  closepath} bdef
/FRR {MRR stroke } bdef
/PRR {MRR fill } bdef
/MlrRR {/lry xdef /lrx xdef /uly xdef /ulx xdef /rad lry uly sub 2 div def
  newpath tMatrix currentmatrix pop ulx rad add uly rad add translate
  rad rad scale 0 0 1 90 270 arc tMatrix setmatrix lrx rad sub lry rad
  sub translate rad rad scale 0 0 1 270 90 arc tMatrix setmatrix
  closepath} bdef
/FlrRR {MlrRR stroke } bdef
/PlrRR {MlrRR fill } bdef
/MtbRR {/lry xdef /lrx xdef /uly xdef /ulx xdef /rad lrx ulx sub 2 div def
  newpath tMatrix currentmatrix pop ulx rad add uly rad add translate
  rad rad scale 0 0 1 180 360 arc tMatrix setmatrix lrx rad sub lry rad
  sub translate rad rad scale 0 0 1 0 180 arc tMatrix setmatrix
  closepath} bdef
/FtbRR {MtbRR stroke } bdef
/PtbRR {MtbRR fill } bdef
/stri 6 array def /dtri 6 array def
/smat 6 array def /dmat 6 array def
/tmat1 6 array def /tmat2 6 array def /dif 3 array def
/asub {/ind2 exch def /ind1 exch def dup dup
  ind1 get exch ind2 get sub exch } bdef
/tri_to_matrix {
  2 0 asub 3 1 asub 4 0 asub 5 1 asub
  dup 0 get exch 1 get 7 -1 roll astore } bdef
/compute_transform {
  dmat dtri tri_to_matrix tmat1 invertmatrix 
  smat stri tri_to_matrix tmat2 concatmatrix } bdef
/ds {stri astore pop} bdef
/dt {dtri astore pop} bdef
/db {2 copy /cols xdef /rows xdef mul dup 3 mul string
  currentfile 
  3 index 0 eq {/ASCIIHexDecode filter}
  {/ASCII85Decode filter 3 index 2 eq {/RunLengthDecode filter} if }
  ifelse exch readstring pop
  dup 0 3 index getinterval /rbmap xdef
  dup 2 index dup getinterval /gbmap xdef
  1 index dup 2 mul exch getinterval /bbmap xdef pop pop}bdef
/it {gs np dtri aload pop moveto lineto lineto cp c
  cols rows 8 compute_transform 
  rbmap gbmap bbmap true 3 colorimage gr}bdef
/il {newpath moveto lineto stroke}bdef
currentdict end def
%%EndProlog

%%BeginSetup
MathWorks begin

0 cap

end
%%EndSetup

%%Page: 1 1
%%BeginPageSetup
%%PageBoundingBox:    18    17   253   228
MathWorks begin
bpage
%%EndPageSetup

%%BeginObject: obj1
bplot

/dpi2point 8.33333 def
portraitMode 0150 1950 csm

    0    46  1959  1755 rc
86 dict begin %Colortable dictionary
/c0 { 0.000000 0.000000 0.000000 sr} bdef
/c1 { 1.000000 1.000000 1.000000 sr} bdef
/c2 { 0.900000 0.000000 0.000000 sr} bdef
/c3 { 0.000000 0.820000 0.000000 sr} bdef
/c4 { 0.000000 0.000000 0.800000 sr} bdef
/c5 { 0.910000 0.820000 0.320000 sr} bdef
/c6 { 1.000000 0.260000 0.820000 sr} bdef
/c7 { 0.000000 0.820000 0.820000 sr} bdef
c0
1 j
1 sg
   0    0 2072 1802 rf
4.16667 w
0 1445 1528 0 0 -1445 346 1580 4 MP
PP
-1528 0 0 1445 1528 0 0 -1445 346 1580 5 MP stroke
2.77778 w
DO
0 sg
 346 1580 mt  346  135 L
 346  135 mt  346  135 L
 728 1580 mt  728  135 L
 728  135 mt  728  135 L
1110 1580 mt 1110  135 L
1110  135 mt 1110  135 L
1492 1580 mt 1492  135 L
1492  135 mt 1492  135 L
1874 1580 mt 1874  135 L
1874  135 mt 1874  135 L
 346 1580 mt 1874 1580 L
1874 1580 mt 1874 1580 L
 346 1339 mt 1874 1339 L
1874 1339 mt 1874 1339 L
 346 1098 mt 1874 1098 L
1874 1098 mt 1874 1098 L
 346  857 mt 1874  857 L
1874  857 mt 1874  857 L
 346  616 mt 1874  616 L
1874  616 mt 1874  616 L
 346  375 mt 1874  375 L
1874  375 mt 1874  375 L
 346  135 mt 1874  135 L
1874  135 mt 1874  135 L
SO
4.16667 w
 346  135 mt 1874  135 L
 346 1580 mt 1874 1580 L
1874 1580 mt 1874  135 L
 346 1580 mt  346  135 L
 346 1580 mt 1874 1580 L
 346 1580 mt  346  135 L
 346 1580 mt  346 1564 L
 346  135 mt  346  150 L
%%IncludeResource: font Helvetica
/Helvetica /WindowsLatin1Encoding 83.3333 FMSR

 323 1681 mt 
(0) s
 728 1580 mt  728 1564 L
 728  135 mt  728  150 L
 705 1681 mt 
(5) s
1110 1580 mt 1110 1564 L
1110  135 mt 1110  150 L
1064 1681 mt 
(10) s
1492 1580 mt 1492 1564 L
1492  135 mt 1492  150 L
1446 1681 mt 
(15) s
1874 1580 mt 1874 1564 L
1874  135 mt 1874  150 L
1828 1681 mt 
(20) s
 346 1580 mt  361 1580 L
1874 1580 mt 1858 1580 L
 276 1610 mt 
(0) s
 346 1339 mt  361 1339 L
1874 1339 mt 1858 1339 L
 137 1369 mt 
(1000) s
 346 1098 mt  361 1098 L
1874 1098 mt 1858 1098 L
 137 1128 mt 
(2000) s
 346  857 mt  361  857 L
1874  857 mt 1858  857 L
 137  887 mt 
(3000) s
 346  616 mt  361  616 L
1874  616 mt 1858  616 L
 137  646 mt 
(4000) s
 346  375 mt  361  375 L
1874  375 mt 1858  375 L
 137  405 mt 
(5000) s
 346  135 mt  361  135 L
1874  135 mt 1858  135 L
 137  165 mt 
(6000) s
 346  135 mt 1874  135 L
 346 1580 mt 1874 1580 L
1874 1580 mt 1874  135 L
 346 1580 mt  346  135 L
gs 346 135 1529 1446 rc
8.33333 w
382 -138 382 -191 382 -248 306 -242 422 1507 5 MP stroke
gr

8.33333 w
gs 371 637 1555 922 rc
  25   25  422 1507 FO
  25   25  728 1265 FO
  25   25 1110 1017 FO
  25   25 1492  826 FO
  25   25 1874  688 FO
gr

gs 346 135 1529 1446 rc
/c8 { 0.000000 0.000000 1.000000 sr} bdef
c8
382 -129 382 -115 382 -83 306 -61 422 1573 5 MP stroke
gr

c8
gs 371 1134 1555 491 rc
 405 1556 mt  439 1590 L
 439 1556 mt  405 1590 L
 711 1495 mt  745 1529 L
 745 1495 mt  711 1529 L
1093 1412 mt 1127 1446 L
1127 1412 mt 1093 1446 L
1475 1297 mt 1509 1331 L
1509 1297 mt 1475 1331 L
1857 1168 mt 1891 1202 L
1891 1168 mt 1857 1202 L
gr

gs 346 135 1529 1446 rc
/c9 { 0.000000 1.000000 0.000000 sr} bdef
c9
382 -100 382 -256 382 -265 306 -473 422 1456 5 MP stroke
gr

c9
gs 371 311 1555 1197 rc
0 j
-29 50 -29 -50 58 0 393 1473 4 MP
DP
-29 50 -29 -50 58 0 699 1000 4 MP
DP
-29 50 -29 -50 58 0 1081 735 4 MP
DP
-29 50 -29 -50 58 0 1463 479 4 MP
DP
-29 50 -29 -50 58 0 1845 379 4 MP
DP
gr

gs 346 135 1529 1446 rc
/c10 { 1.000000 0.000000 0.000000 sr} bdef
c10
382 -143 382 -97 382 -86 306 -33 422 1528 5 MP stroke
gr

c10
0 sg
 527 1781 mt 
(Standard deviation of SNR \(dB\)) s
  80 1405 mt  -90 rotate
(Accumulated regret at t=1500) s
90 rotate
 327 1619 mt 
( ) s
1856  173 mt 
( ) s
4.16667 w
1 sg
0 446 775 0 0 -446 362 670 4 MP
PP
-775 0 0 446 775 0 0 -446 362 670 5 MP stroke
2.77778 w
DO
SO
4.16667 w
0 sg
 362  224 mt 1137  224 L
 362  670 mt 1137  670 L
1137  670 mt 1137  224 L
 362  670 mt  362  224 L
 362  670 mt 1137  670 L
 362  670 mt  362  224 L
 362  224 mt 1137  224 L
 362  670 mt 1137  670 L
1137  670 mt 1137  224 L
 362  670 mt  362  224 L
%%IncludeResource: font Helvetica
/Helvetica /WindowsLatin1Encoding 66.6667 FMSR

 687  315 mt 
(Seq. FA) s
gs 362 224 776 447 rc
8.33333 w
c9
250 0 412 290 2 MP stroke
gs 486 239 103 103 rc
0 j
-29 50 -29 -50 58 0 508 307 4 MP
DP
gr

gr

8.33333 w
c9
0 sg
%%IncludeResource: font Symbol
/Symbol /WindowsLatin1Encoding 66.6667 FMSR

 687  419 mt 
(e) s
%%IncludeResource: font Helvetica
/Helvetica /WindowsLatin1Encoding 66.6667 FMSR

 716  419 mt 
( greedy) s
gs 362 224 776 447 rc
250 0 412 394 2 MP stroke
gs 486 343 103 103 rc
  25   25  537  394 FO
gr

gr

 687  524 mt 
(TLP) s
gs 362 224 776 447 rc
c8
250 0 412 499 2 MP stroke
gs 486 448 103 103 rc
 520  482 mt  554  516 L
 554  482 mt  520  516 L
gr

gr

c8
0 sg
 687  628 mt 
(Seq. FA_UCB) s
gs 362 224 776 447 rc
c10
250 0 412 603 2 MP stroke
4.16667 w
gr

4.16667 w
c10

end %%Color Dict

eplot
%%EndObject

epage
end

showpage

%%Trailer
%%EOF
