%!PS-Adobe-3.0 EPSF-3.0
%%Creator: MATLAB, The MathWorks, Inc. Version 8.3.0.532 (R2014a). Operating System: Microsoft Windows 8.1 Pro.
%%Title: .\VsN.eps
%%CreationDate: 09/17/2014  19:32:55
%%DocumentNeededFonts: Helvetica
%%DocumentProcessColors: Cyan Magenta Yellow Black
%%LanguageLevel: 2
%%Pages: 1
%%BoundingBox:    18    17   249   228
%%EndComments

%%BeginProlog
% MathWorks dictionary
/MathWorks 160 dict begin
% definition operators
/bdef {bind def} bind def
/ldef {load def} bind def
/xdef {exch def} bdef
/xstore {exch store} bdef
% operator abbreviations
/c  /clip ldef
/cc /concat ldef
/cp /closepath ldef
/gr /grestore ldef
/gs /gsave ldef
/mt /moveto ldef
/np /newpath ldef
/cm /currentmatrix ldef
/sm /setmatrix ldef
/rm /rmoveto ldef
/rl /rlineto ldef
/s {show newpath} bdef
/sc {setcmykcolor} bdef
/sr /setrgbcolor ldef
/sg /setgray ldef
/w /setlinewidth ldef
/j /setlinejoin ldef
/cap /setlinecap ldef
/rc {rectclip} bdef
/rf {rectfill} bdef
% page state control
/pgsv () def
/bpage {/pgsv save def} bdef
/epage {pgsv restore} bdef
/bplot /gsave ldef
/eplot {stroke grestore} bdef
% orientation switch
/portraitMode 0 def /landscapeMode 1 def /rotateMode 2 def
% coordinate system mappings
/dpi2point 0 def
% font control
/FontSize 0 def
/FMS {/FontSize xstore findfont [FontSize 0 0 FontSize neg 0 0]
  makefont setfont} bdef
/ISOLatin1Encoding where {pop /WindowsLatin1Encoding 256 array bdef
ISOLatin1Encoding WindowsLatin1Encoding copy pop
/.notdef/.notdef/quotesinglbase/florin/quotedblbase/ellipsis/dagger
/daggerdbl/circumflex/perthousand/Scaron/guilsinglleft/OE/.notdef/.notdef
/.notdef/.notdef/quoteleft/quoteright/quotedblleft/quotedblright/bullet
/endash/emdash/tilde/trademark/scaron/guilsinglright/oe/.notdef/.notdef
/Ydieresis WindowsLatin1Encoding 128 32 getinterval astore pop}
{/WindowsLatin1Encoding StandardEncoding bdef} ifelse
/reencode {exch dup where {pop load} {pop StandardEncoding} ifelse
  exch dup 3 1 roll findfont dup length dict begin
  { 1 index /FID ne {def}{pop pop} ifelse } forall
  /Encoding exch def currentdict end definefont pop} bdef
/isroman {findfont /CharStrings get /Agrave known} bdef
/FMSR {3 1 roll 1 index dup isroman {reencode} {pop pop} ifelse
  exch FMS} bdef
/csm {1 dpi2point div -1 dpi2point div scale neg translate
 dup landscapeMode eq {pop -90 rotate}
  {rotateMode eq {90 rotate} if} ifelse} bdef
% line types: solid, dotted, dashed, dotdash
/SO { [] 0 setdash } bdef
/DO { [.5 dpi2point mul 4 dpi2point mul] 0 setdash } bdef
/DA { [6 dpi2point mul] 0 setdash } bdef
/DD { [.5 dpi2point mul 4 dpi2point mul 6 dpi2point mul 4
  dpi2point mul] 0 setdash } bdef
% macros for lines and objects
/L {lineto stroke} bdef
/MP {3 1 roll moveto 1 sub {rlineto} repeat} bdef
/AP {{rlineto} repeat} bdef
/PDlw -1 def
/W {/PDlw currentlinewidth def setlinewidth} def
/PP {closepath eofill} bdef
/DP {closepath stroke} bdef
/MR {4 -2 roll moveto dup  0 exch rlineto exch 0 rlineto
  neg 0 exch rlineto closepath} bdef
/FR {MR stroke} bdef
/PR {MR fill} bdef
/L1i {{currentfile picstr readhexstring pop} image} bdef
/tMatrix matrix def
/MakeOval {newpath tMatrix currentmatrix pop translate scale
0 0 1 0 360 arc tMatrix setmatrix} bdef
/FO {MakeOval stroke} bdef
/PO {MakeOval fill} bdef
/PD {currentlinewidth 2 div 0 360 arc fill
   PDlw -1 eq not {PDlw w /PDlw -1 def} if} def
/FA {newpath tMatrix currentmatrix pop translate scale
  0 0 1 5 -2 roll arc tMatrix setmatrix stroke} bdef
/PA {newpath tMatrix currentmatrix pop	translate 0 0 moveto scale
  0 0 1 5 -2 roll arc closepath tMatrix setmatrix fill} bdef
/FAn {newpath tMatrix currentmatrix pop translate scale
  0 0 1 5 -2 roll arcn tMatrix setmatrix stroke} bdef
/PAn {newpath tMatrix currentmatrix pop translate 0 0 moveto scale
  0 0 1 5 -2 roll arcn closepath tMatrix setmatrix fill} bdef
/vradius 0 def /hradius 0 def /lry 0 def
/lrx 0 def /uly 0 def /ulx 0 def /rad 0 def
/MRR {/vradius xdef /hradius xdef /lry xdef /lrx xdef /uly xdef
  /ulx xdef newpath tMatrix currentmatrix pop ulx hradius add uly
  vradius add translate hradius vradius scale 0 0 1 180 270 arc 
  tMatrix setmatrix lrx hradius sub uly vradius add translate
  hradius vradius scale 0 0 1 270 360 arc tMatrix setmatrix
  lrx hradius sub lry vradius sub translate hradius vradius scale
  0 0 1 0 90 arc tMatrix setmatrix ulx hradius add lry vradius sub
  translate hradius vradius scale 0 0 1 90 180 arc tMatrix setmatrix
  closepath} bdef
/FRR {MRR stroke } bdef
/PRR {MRR fill } bdef
/MlrRR {/lry xdef /lrx xdef /uly xdef /ulx xdef /rad lry uly sub 2 div def
  newpath tMatrix currentmatrix pop ulx rad add uly rad add translate
  rad rad scale 0 0 1 90 270 arc tMatrix setmatrix lrx rad sub lry rad
  sub translate rad rad scale 0 0 1 270 90 arc tMatrix setmatrix
  closepath} bdef
/FlrRR {MlrRR stroke } bdef
/PlrRR {MlrRR fill } bdef
/MtbRR {/lry xdef /lrx xdef /uly xdef /ulx xdef /rad lrx ulx sub 2 div def
  newpath tMatrix currentmatrix pop ulx rad add uly rad add translate
  rad rad scale 0 0 1 180 360 arc tMatrix setmatrix lrx rad sub lry rad
  sub translate rad rad scale 0 0 1 0 180 arc tMatrix setmatrix
  closepath} bdef
/FtbRR {MtbRR stroke } bdef
/PtbRR {MtbRR fill } bdef
/stri 6 array def /dtri 6 array def
/smat 6 array def /dmat 6 array def
/tmat1 6 array def /tmat2 6 array def /dif 3 array def
/asub {/ind2 exch def /ind1 exch def dup dup
  ind1 get exch ind2 get sub exch } bdef
/tri_to_matrix {
  2 0 asub 3 1 asub 4 0 asub 5 1 asub
  dup 0 get exch 1 get 7 -1 roll astore } bdef
/compute_transform {
  dmat dtri tri_to_matrix tmat1 invertmatrix 
  smat stri tri_to_matrix tmat2 concatmatrix } bdef
/ds {stri astore pop} bdef
/dt {dtri astore pop} bdef
/db {2 copy /cols xdef /rows xdef mul dup 3 mul string
  currentfile 
  3 index 0 eq {/ASCIIHexDecode filter}
  {/ASCII85Decode filter 3 index 2 eq {/RunLengthDecode filter} if }
  ifelse exch readstring pop
  dup 0 3 index getinterval /rbmap xdef
  dup 2 index dup getinterval /gbmap xdef
  1 index dup 2 mul exch getinterval /bbmap xdef pop pop}bdef
/it {gs np dtri aload pop moveto lineto lineto cp c
  cols rows 8 compute_transform 
  rbmap gbmap bbmap true 3 colorimage gr}bdef
/il {newpath moveto lineto stroke}bdef
currentdict end def
%%EndProlog

%%BeginSetup
MathWorks begin

0 cap

end
%%EndSetup

%%Page: 1 1
%%BeginPageSetup
%%PageBoundingBox:    18    17   249   228
MathWorks begin
bpage
%%EndPageSetup

%%BeginObject: obj1
bplot

/dpi2point 8.33333 def
portraitMode 0150 1950 csm

    0    46  1929  1755 rc
86 dict begin %Colortable dictionary
/c0 { 0.000000 0.000000 0.000000 sr} bdef
/c1 { 1.000000 1.000000 1.000000 sr} bdef
/c2 { 0.900000 0.000000 0.000000 sr} bdef
/c3 { 0.000000 0.820000 0.000000 sr} bdef
/c4 { 0.000000 0.000000 0.800000 sr} bdef
/c5 { 0.910000 0.820000 0.320000 sr} bdef
/c6 { 1.000000 0.260000 0.820000 sr} bdef
/c7 { 0.000000 0.820000 0.820000 sr} bdef
c0
1 j
1 sg
   0    0 2072 1802 rf
4.16667 w
0 1445 1528 0 0 -1445 346 1580 4 MP
PP
-1528 0 0 1445 1528 0 0 -1445 346 1580 5 MP stroke
2.77778 w
DO
0 sg
 346 1580 mt  346  135 L
 346  135 mt  346  135 L
 770 1580 mt  770  135 L
 770  135 mt  770  135 L
1194 1580 mt 1194  135 L
1194  135 mt 1194  135 L
1619 1580 mt 1619  135 L
1619  135 mt 1619  135 L
 346 1580 mt 1874 1580 L
1874 1580 mt 1874 1580 L
 346 1291 mt 1874 1291 L
1874 1291 mt 1874 1291 L
 346 1002 mt 1874 1002 L
1874 1002 mt 1874 1002 L
 346  713 mt 1874  713 L
1874  713 mt 1874  713 L
 346  424 mt 1874  424 L
1874  424 mt 1874  424 L
 346  135 mt 1874  135 L
1874  135 mt 1874  135 L
SO
4.16667 w
 346  135 mt 1874  135 L
 346 1580 mt 1874 1580 L
1874 1580 mt 1874  135 L
 346 1580 mt  346  135 L
 346 1580 mt 1874 1580 L
 346 1580 mt  346  135 L
 346 1580 mt  346 1564 L
 346  135 mt  346  150 L
%%IncludeResource: font Helvetica
/Helvetica /WindowsLatin1Encoding 83.3333 FMSR

 323 1681 mt 
(0) s
 770 1580 mt  770 1564 L
 770  135 mt  770  150 L
 747 1681 mt 
(5) s
1194 1580 mt 1194 1564 L
1194  135 mt 1194  150 L
1148 1681 mt 
(10) s
1619 1580 mt 1619 1564 L
1619  135 mt 1619  150 L
1573 1681 mt 
(15) s
 346 1580 mt  361 1580 L
1874 1580 mt 1858 1580 L
 276 1610 mt 
(0) s
 346 1291 mt  361 1291 L
1874 1291 mt 1858 1291 L
 183 1321 mt 
(200) s
 346 1002 mt  361 1002 L
1874 1002 mt 1858 1002 L
 183 1032 mt 
(400) s
 346  713 mt  361  713 L
1874  713 mt 1858  713 L
 183  743 mt 
(600) s
 346  424 mt  361  424 L
1874  424 mt 1858  424 L
 183  454 mt 
(800) s
 346  135 mt  361  135 L
1874  135 mt 1858  135 L
 137  165 mt 
(1000) s
 346  135 mt 1874  135 L
 346 1580 mt 1874 1580 L
1874 1580 mt 1874  135 L
 346 1580 mt  346  135 L
gs 346 135 1529 1446 rc
8.33333 w
425 -445 424 -422 170 -159 600 1362 4 MP stroke
gr

8.33333 w
  25   25  600 1362 FO
  25   25  770 1203 FO
  25   25 1194  781 FO
  25   25 1619  336 FO
gs 346 135 1529 1446 rc
/c8 { 0.000000 0.000000 1.000000 sr} bdef
c8
425 -90 424 -113 170 -51 600 1501 4 MP stroke
gr

c8
 583 1484 mt  617 1518 L
 617 1484 mt  583 1518 L
 753 1433 mt  787 1467 L
 787 1433 mt  753 1467 L
1177 1320 mt 1211 1354 L
1211 1320 mt 1177 1354 L
1602 1230 mt 1636 1264 L
1636 1230 mt 1602 1264 L
gs 346 135 1529 1446 rc
/c9 { 0.000000 1.000000 0.000000 sr} bdef
c9
425 -158 424 -222 170 -40 600 1182 4 MP stroke
gr

c9
0 j
-29 50 -29 -50 58 0 571 1199 4 MP
DP
-29 50 -29 -50 58 0 741 1159 4 MP
DP
-29 50 -29 -50 58 0 1165 937 4 MP
DP
-29 50 -29 -50 58 0 1590 779 4 MP
DP
gs 346 135 1529 1446 rc
/c10 { 1.000000 0.000000 0.000000 sr} bdef
c10
425 -106 424 -93 170 -60 600 1506 4 MP stroke
gr

c10
0 sg
 922 1781 mt 
(Num. SUs) s
  80 1405 mt  -90 rotate
(Accumulated regret at t=1500) s
90 rotate
 327 1619 mt 
( ) s
1856  173 mt 
( ) s
4.16667 w
1 sg
0 446 775 0 0 -446 414 670 4 MP
PP
-775 0 0 446 775 0 0 -446 414 670 5 MP stroke
2.77778 w
DO
SO
4.16667 w
0 sg
 414  224 mt 1189  224 L
 414  670 mt 1189  670 L
1189  670 mt 1189  224 L
 414  670 mt  414  224 L
 414  670 mt 1189  670 L
 414  670 mt  414  224 L
 414  224 mt 1189  224 L
 414  670 mt 1189  670 L
1189  670 mt 1189  224 L
 414  670 mt  414  224 L
%%IncludeResource: font Helvetica
/Helvetica /WindowsLatin1Encoding 66.6667 FMSR

 739  315 mt 
(Seq. FA) s
gs 414 224 776 447 rc
8.33333 w
c9
250 0 464 290 2 MP stroke
gs 538 239 103 103 rc
-29 50 -29 -50 58 0 560 307 4 MP
DP
gr

gr

8.33333 w
c9
0 sg
%%IncludeResource: font Symbol
/Symbol /WindowsLatin1Encoding 66.6667 FMSR

 739  419 mt 
(e) s
%%IncludeResource: font Helvetica
/Helvetica /WindowsLatin1Encoding 66.6667 FMSR

 768  419 mt 
( greedy) s
gs 414 224 776 447 rc
250 0 464 394 2 MP stroke
gs 538 343 103 103 rc
  25   25  589  394 FO
gr

gr

 739  524 mt 
(TLP) s
gs 414 224 776 447 rc
c8
250 0 464 499 2 MP stroke
gs 538 448 103 103 rc
 572  482 mt  606  516 L
 606  482 mt  572  516 L
gr

gr

c8
0 sg
 739  628 mt 
(Seq. FA_UCB) s
gs 414 224 776 447 rc
c10
250 0 464 603 2 MP stroke
4.16667 w
gr

4.16667 w
c10

end %%Color Dict

eplot
%%EndObject

epage
end

showpage

%%Trailer
%%EOF
